{
  "success": true,
  "code": 0,
  "data": {
    "items": [{
      "entity": {
        "bindTime": 1551270390724,
        "userId": 3603513,
        "wechatName": "Joanna🎉",
        "photo": "{\"photo\":\"http://i.s.babyfs.cn/p_f8672b7cb3c84a48b6d5ca54580084ba.jpeg\",\"wxHeadImg\":\"http://i.s.babyfs.cn/p_c600b4be56b742ca8ddce66985169116.jpeg\"}",
        "hasOrder": 0,
        "isBindAmb": 0,
        "isAttendClass": 1,
        "days": 409
      },
      "parsed": {}
    }, {
      "entity": {
        "bindTime": 1551268914954,
        "userId": 3602548,
        "wechatName": "李华敏",
        "photo": "{\"photo\":\"http://i.s.babyfs.cn/p_463f3143da4f440a9cfb7c11d1d295b9.jpeg\",\"wxHeadImg\":\"http://i.s.babyfs.cn/p_90943b5e2e154807af9269758bd28f22.jpeg\"}",
        "hasOrder": 0,
        "isBindAmb": 0,
        "isAttendClass": 1,
        "days": 409
      },
      "parsed": {}
    }, {
      "entity": {
        "bindTime": 1551265424625,
        "userId": 3600185,
        "wechatName": "夕阳草",
        "photo": "{\"photo\":\"http://i.s.babyfs.cn/p_e1fb07cb07744ff393c3a7114756d4e6.jpeg\",\"wxHeadImg\":\"http://i.s.babyfs.cn/p_c5056431cd8447c189c1d30dc7ac0419.jpeg\"}",
        "hasOrder": 0,
        "isBindAmb": 0,
        "isAttendClass": 1,
        "days": 409
      },
      "parsed": {}
    }, {
      "entity": {
        "bindTime": 1551264675514,
        "userId": 3600530,
        "wechatName": "youngman",
        "photo": "{\"photo\":\"http://i.s.babyfs.cn/p_61948ae398a34bdd886d4cc1068a0513.jpeg\",\"wxHeadImg\":\"http://i.s.babyfs.cn/p_8f13f372262d43c4a758db63218ba8c1.jpeg\"}",
        "hasOrder": 0,
        "isBindAmb": 0,
        "isAttendClass": 1,
        "days": 409
      },
      "parsed": {}
    }, {
      "entity": {
        "bindTime": 1551264487188,
        "userId": 3600466,
        "wechatName": "yoyo",
        "photo": "{\"photo\":\"http://i.s.babyfs.cn/p_3a34fee4980940ca99769682125dd8f2.jpeg\",\"wxHeadImg\":\"http://i.s.babyfs.cn/p_5a9798c71e434cd1a6cf502f8119b624.jpeg\"}",
        "hasOrder": 0,
        "isBindAmb": 0,
        "isAttendClass": 1,
        "days": 409
      },
      "parsed": {}
    }, {
      "entity": {
        "bindTime": 1551264473480,
        "userId": 3600461,
        "wechatName": "小房子",
        "photo": "{\"photo\":\"http://i.s.babyfs.cn/p_8a68cdcf70cb4a618b73e27d82b8edf1.jpeg\",\"wxHeadImg\":\"http://i.s.babyfs.cn/p_826f9c9d984747fa8ca17614afd6a4c8.jpeg\"}",
        "hasOrder": 0,
        "isBindAmb": 0,
        "isAttendClass": 1,
        "days": 409
      },
      "parsed": {}
    }, {
      "entity": {
        "bindTime": 1551264349680,
        "userId": 3600423,
        "wechatName": "月疏影",
        "photo": "{\"photo\":\"http://i.s.babyfs.cn/p_808b1540ed7049ff95e5928c587e1a39.jpeg\",\"wxHeadImg\":\"http://i.s.babyfs.cn/p_32a94ada06d247fdbe703ba5874d9d8e.jpeg\"}",
        "hasOrder": 0,
        "isBindAmb": 0,
        "isAttendClass": 1,
        "days": 409
      },
      "parsed": {}
    }, {
      "entity": {
        "bindTime": 1551263980724,
        "userId": 3600277,
        "wechatName": "开心麻麻👙杨翠",
        "photo": "{\"photo\":\"http://i.s.babyfs.cn/p_61a5351f86444398b0cd72f93b123fde.jpeg\",\"wxHeadImg\":\"http://i.s.babyfs.cn/p_20d2b19c323e46019912895f92e9706a.jpeg\"}",
        "hasOrder": 0,
        "isBindAmb": 0,
        "isAttendClass": 1,
        "days": 409
      },
      "parsed": {}
    }, {
      "entity": {
        "bindTime": 1551263919876,
        "userId": 2364864,
        "wechatName": "涓涓细流",
        "photo": "{\"photo\":\"http://i.s.babyfs.cn/p_296747001801433199ef4735a49927f3.jpeg\",\"wxHeadImg\":\"http://i.s.babyfs.cn/p_7993a8337079485d957466cc71b0f0cb.jpeg\"}",
        "hasOrder": 0,
        "isBindAmb": 0,
        "isAttendClass": 1,
        "days": 409
      },
      "parsed": {}
    }, {
      "entity": {
        "bindTime": 1551263722463,
        "userId": 3600216,
        "wechatName": "unverwirrt",
        "photo": "{\"photo\":\"http://i.s.babyfs.cn/p_72cc3a0bfa1b472ba989799177bc8079.jpeg\",\"wxHeadImg\":\"http://i.s.babyfs.cn/p_da104e161bc94b4499a52432750f25c2.jpeg\"}",
        "hasOrder": 0,
        "isBindAmb": 0,
        "isAttendClass": 1,
        "days": 409
      },
      "parsed": {}
    }, {
      "entity": {
        "bindTime": 1551263665557,
        "userId": 3600199,
        "wechatName": "willa",
        "photo": "{\"photo\":\"http://i.s.babyfs.cn/p_34de405e12454761be89c5c2ad62a66f.jpeg\",\"wxHeadImg\":\"http://i.s.babyfs.cn/p_0d4142197c3346d79e503cb71c8b490d.jpeg\"}",
        "hasOrder": 0,
        "isBindAmb": 0,
        "isAttendClass": 1,
        "days": 409
      },
      "parsed": {}
    }, {
      "entity": {
        "bindTime": 1551261411583,
        "userId": 2242043,
        "wechatName": "🐘",
        "photo": "{\"photo\":\"http://i.s.babyfs.cn/p_48e8963c2d2f4ca4b361571e03d3e20b.jpeg\",\"wxHeadImg\":\"http://i.s.babyfs.cn/p_f72e0e8d042e4a309637295630832bf3.jpeg\"}",
        "hasOrder": 0,
        "isBindAmb": 0,
        "isAttendClass": 0,
        "days": 364
      },
      "parsed": {}
    }, {
      "entity": {
        "bindTime": 1551261087156,
        "userId": 3599331,
        "wechatName": "虹",
        "photo": "{\"photo\":\"http://i.s.babyfs.cn/p_ac8ad40dcaad40158c9d2fe136cc5fd4.jpeg\",\"wxHeadImg\":\"http://i.s.babyfs.cn/p_3219dddc708d4cf3845a09c0b2a2ddb0.jpeg\"}",
        "hasOrder": 0,
        "isBindAmb": 0,
        "isAttendClass": 0,
        "days": 364
      },
      "parsed": {}
    }, {
      "entity": {
        "bindTime": 1551249726854,
        "userId": 3595321,
        "wechatName": "No",
        "photo": "{\"photo\":\"http://i.s.babyfs.cn/p_9f9618a217984224b79f93114e5e6f73.jpeg\",\"wxHeadImg\":\"http://i.s.babyfs.cn/p_b74dedd890ce418e97ccabe2e5cb4c4a.jpeg\"}",
        "hasOrder": 0,
        "isBindAmb": 0,
        "isAttendClass": 1,
        "days": 409
      },
      "parsed": {}
    }, {
      "entity": {
        "bindTime": 1551247344463,
        "userId": 3594625,
        "wechatName": "BLM",
        "photo": "{\"photo\":\"http://i.s.babyfs.cn/p_e02c36e9bf7b4e8ea7b8a9f9e2dd94c6.jpeg\",\"wxHeadImg\":\"http://i.s.babyfs.cn/p_d82e60f2f1f0442db0dc12e68eb372ea.jpeg\"}",
        "hasOrder": 0,
        "isBindAmb": 0,
        "isAttendClass": 1,
        "days": 409
      },
      "parsed": {}
    }, {
      "entity": {
        "bindTime": 1551235986932,
        "userId": 3589420,
        "wechatName": "程聪聪",
        "photo": "{\"photo\":\"http://i.s.babyfs.cn/p_132c79c38c634893ab2a10e3b1e06535.jpeg\",\"wxHeadImg\":\"http://i.s.babyfs.cn/p_d07d804c9b594ad8bab0cca6c05c268f.jpeg\"}",
        "hasOrder": 0,
        "isBindAmb": 0,
        "isAttendClass": 0,
        "days": 364
      },
      "parsed": {}
    }, {
      "entity": {
        "bindTime": 1551232836999,
        "userId": 3587724,
        "wechatName": "马利娟",
        "photo": "{\"photo\":\"http://i.s.babyfs.cn/p_d7a80cba09124350a3cb73a365527cb9.jpeg\",\"wxHeadImg\":\"http://i.s.babyfs.cn/p_70d8d71722784118989b278b10b77101.jpeg\"}",
        "hasOrder": 0,
        "isBindAmb": 0,
        "isAttendClass": 0,
        "days": 364
      },
      "parsed": {}
    }, {
      "entity": {
        "bindTime": 1551228683286,
        "userId": 3540743,
        "wechatName": "✨ 简单💋",
        "photo": "{\"photo\":\"http://i.s.babyfs.cn/p_6d773d26ad324e8b850fa7be295fc5ed.jpeg\",\"wxHeadImg\":\"http://i.s.babyfs.cn/p_794f97c36a58430f9e3e1327fc666ad4.jpeg\"}",
        "hasOrder": 0,
        "isBindAmb": 0,
        "isAttendClass": 1,
        "days": 409
      },
      "parsed": {}
    }, {
      "entity": {
        "bindTime": 1551189920656,
        "userId": 3581834,
        "wechatName": "思盟科技冯锦标",
        "photo": "{\"photo\":\"http://i.s.babyfs.cn/p_c72973139f954b25a07867c132b90de8.jpeg\",\"wxHeadImg\":\"http://i.s.babyfs.cn/p_5eb8d26676134c9b9e03dd2c2043c832.jpeg\"}",
        "hasOrder": 0,
        "isBindAmb": 0,
        "isAttendClass": 0,
        "days": 364
      },
      "parsed": {}
    }, {
      "entity": {
        "bindTime": 1551187945215,
        "userId": 3580968,
        "wechatName": "语涵",
        "hasOrder": 0,
        "isBindAmb": 0,
        "isAttendClass": 1,
        "days": 409
      },
      "parsed": {}
    }],
    "limit": 20,
    "page": 1,
    "totalCount": 194,
    "totalPage": 10
  }
}