{
  "success": true,
  "code": 0,
  "data": {
    "items": [{
      "entity": {
        "bindTime": 1547465496795,
        "userId": 1285926,
        "wechatName": "杨  爱¹⁵⁶¹³⁷⁸⁰⁹⁰⁰",
        "photo": "{\"photo\":\"http://i.s.babyfs.cn/p_73b16206451f451888a52e9c987e57a6.jpeg\",\"wxHeadImg\":\"http://i.s.babyfs.cn/p_893d20f0d7324d2587b50ec28322fe51.jpeg\"}",
        "hasOrder": 0,
        "isBindAmb": 0,
        "isAttendClass": 0,
        "days": 320
      },
      "parsed": {}
    }, {
      "entity": {
        "bindTime": 1547455975311,
        "userId": 1542486,
        "wechatName": "维",
        "photo": "{\"photo\":\"http://i.s.babyfs.cn/p_9cd47f6cba994c46b68b2c0a148867ed.jpeg\",\"wxHeadImg\":\"http://i.s.babyfs.cn/p_456465f7761a4405bbe619e76be0bf6e.jpeg\"}",
        "hasOrder": 0,
        "isBindAmb": 0,
        "isAttendClass": 0,
        "days": 320
      },
      "parsed": {}
    }, {
      "entity": {
        "bindTime": 1547455904086,
        "userId": 1261165,
        "wechatName": "薇",
        "photo": "{\"photo\":\"http://i.s.babyfs.cn/p_4facd86931c0466aab1a7ee0fe3727bc.jpeg\",\"wxHeadImg\":\"http://i.s.babyfs.cn/p_a12c3afe85474b69ad85490c7c7d1f25.jpeg\"}",
        "hasOrder": 0,
        "isBindAmb": 1,
        "isAttendClass": 0,
        "days": 320
      },
      "parsed": {}
    }, {
      "entity": {
        "bindTime": 1547455672218,
        "userId": 2066216,
        "wechatName": "晴晴大时代、全宇宙最爱💋",
        "photo": "{\"photo\":\"http://i.s.babyfs.cn/p_4f6ac47f2eb84def846b1becd4e3daf0.jpeg\",\"wxHeadImg\":\"http://i.s.babyfs.cn/p_2df28ec577f843e986f15dbf09c85f02.jpeg\"}",
        "hasOrder": 0,
        "isBindAmb": 0,
        "isAttendClass": 0,
        "days": 320
      },
      "parsed": {}
    }, {
      "entity": {
        "bindTime": 1547454728757,
        "userId": 2955529,
        "wechatName": "猫爪购物",
        "photo": "{\"photo\":\"http://i.s.babyfs.cn/p_fd4815c6cc5d4cf9b97ee760813d9562.jpeg\",\"wxHeadImg\":\"http://i.s.babyfs.cn/p_0b467072002c46988683f6b2ba45bb93.jpeg\"}",
        "hasOrder": 0,
        "isBindAmb": 0,
        "isAttendClass": 1,
        "days": 365
      },
      "parsed": {}
    }, {
      "entity": {
        "bindTime": 1547454235579,
        "userId": 800211,
        "wechatName": "@you",
        "photo": "{\"photo\":\"http://i.s.babyfs.cn/p_85d923a49fed4e18bb407e237428aef8.jpeg\",\"wxHeadImg\":\"http://i.s.babyfs.cn/p_967c509dbc4c40ab9a9e65b5dc0da17d.jpeg\"}",
        "hasOrder": 0,
        "isBindAmb": 1,
        "isAttendClass": 0,
        "days": 320
      },
      "parsed": {}
    }, {
      "entity": {
        "bindTime": 1547453685059,
        "userId": 525259,
        "wechatName": "李俊艳",
        "photo": "{\"photo\":\"http://i.s.babyfs.cn/p_41484141a409498abc905382dc3d1a82.jpeg\",\"wxHeadImg\":\"http://i.s.babyfs.cn/p_f50bae7d2d364fad8708de5af75e6d57.jpeg\"}",
        "hasOrder": 0,
        "isBindAmb": 0,
        "isAttendClass": 0,
        "days": 320
      },
      "parsed": {}
    }, {
      "entity": {
        "bindTime": 1547440389519,
        "userId": 1044076,
        "wechatName": "妞妞宝",
        "photo": "{\"photo\":\"http://i.s.babyfs.cn/p_b48514aacfd1417985fcc846009a566f.jpeg\",\"wxHeadImg\":\"http://i.s.babyfs.cn/p_1e8affed32634d79aa4ad655340bcf86.jpeg\"}",
        "hasOrder": 0,
        "isBindAmb": 0,
        "isAttendClass": 0,
        "days": 320
      },
      "parsed": {}
    }, {
      "entity": {
        "bindTime": 1547215089943,
        "userId": 1039403,
        "wechatName": "虹虹",
        "photo": "{\"photo\":\"http://i.s.babyfs.cn/p_5acc6336010949b7987e8abccdb6260e.jpeg\",\"wxHeadImg\":\"http://i.s.babyfs.cn/p_39675b9a419a4949b7e5c424ee7db6a6.jpeg\"}",
        "hasOrder": 0,
        "isBindAmb": 0,
        "isAttendClass": 1,
        "days": 363
      },
      "parsed": {}
    }, {
      "entity": {
        "bindTime": 1547210873670,
        "userId": 851461,
        "wechatName": "红女孩YOYO",
        "photo": "{\"photo\":\"http://i.s.babyfs.cn/p_a1132b99ec594c979d92ae1c7fd2495f.jpeg\",\"wxHeadImg\":\"http://i.s.babyfs.cn/p_6b64dbfde1a64416bd107cd168314686.jpeg\"}",
        "hasOrder": 0,
        "isBindAmb": 0,
        "isAttendClass": 0,
        "days": 317
      },
      "parsed": {}
    }, {
      "entity": {
        "bindTime": 1547210333548,
        "userId": 820074,
        "wechatName": "龙海",
        "photo": "{\"photo\":\"http://i.s.babyfs.cn/p_14b3048c18c04cea9c24e53d561c8c3d.jpeg\",\"wxHeadImg\":\"http://i.s.babyfs.cn/p_a447b97ecdd64f9498053207ca90186d.jpeg\"}",
        "hasOrder": 0,
        "isBindAmb": 0,
        "isAttendClass": 1,
        "days": 362
      },
      "parsed": {}
    }, {
      "entity": {
        "bindTime": 1547209507643,
        "userId": 1117625,
        "wechatName": "王露",
        "photo": "{\"photo\":\"http://i.s.babyfs.cn/p_31cbe947cf6d4c728788f8a8626ac741.jpeg\",\"wxHeadImg\":\"http://i.s.babyfs.cn/p_d69cb87dc787418f87a66b9f8b00cc50.jpeg\"}",
        "hasOrder": 0,
        "isBindAmb": 0,
        "isAttendClass": 0,
        "days": 317
      },
      "parsed": {}
    }, {
      "entity": {
        "bindTime": 1547194821870,
        "userId": 757683,
        "wechatName": "舟舟",
        "photo": "{\"photo\":\"http://i.s.babyfs.cn/p_16ddcc1505314135aed1cb9d8b2dd975.jpeg\",\"wxHeadImg\":\"http://i.s.babyfs.cn/p_d4f20172cfc34f0e9d027c3b4119c8f0.jpeg\"}",
        "hasOrder": 0,
        "isBindAmb": 0,
        "isAttendClass": 1,
        "days": 362
      },
      "parsed": {}
    }, {
      "entity": {
        "bindTime": 1547001015587,
        "userId": 1167657,
        "wechatName": "张胖妮儿",
        "photo": "{\"photo\":\"http://i.s.babyfs.cn/p_db27a2aafbbd44fe85317cc098b806a8.jpeg\",\"wxHeadImg\":\"http://i.s.babyfs.cn/p_0f514325d88844a9a178bde574546f50.jpeg\"}",
        "hasOrder": 0,
        "isBindAmb": 0,
        "isAttendClass": 1,
        "days": 360
      },
      "parsed": {}
    }],
    "limit": 20,
    "page": 10,
    "totalCount": 194,
    "totalPage": 10
  }
}