{
  "success": true,
  "code": 0,
  "data": {
    "items": [{
      "entity": {
        "bindTime": 1551185945534,
        "userId": 528206,
        "wechatName": "细燕",
        "photo": "{\"photo\":\"http://i.s.babyfs.cn/p_016c5c631d4a4c70bfb3772d241a46cb.jpeg\",\"wxHeadImg\":\"http://i.s.babyfs.cn/p_d78cb72c49ca41dea72467f1830e137c.jpeg\"}",
        "hasOrder": 0,
        "isBindAmb": 0,
        "isAttendClass": 1,
        "days": 408
      },
      "parsed": {}
    }, {
      "entity": {
        "bindTime": 1551170003660,
        "userId": 1664024,
        "wechatName": "blue sky",
        "photo": "{\"photo\":\"http://i.s.babyfs.cn/p_bc382d1262464611ae8b69c6c86b0465.jpeg\",\"wxHeadImg\":\"http://i.s.babyfs.cn/p_51beb423c70f4609beca9d17d4cd8e81.jpeg\"}",
        "hasOrder": 0,
        "isBindAmb": 0,
        "isAttendClass": 1,
        "days": 408
      },
      "parsed": {}
    }, {
      "entity": {
        "bindTime": 1551168018926,
        "userId": 3573743,
        "wechatName": "汾香",
        "photo": "{\"photo\":\"http://i.s.babyfs.cn/p_87cdbeb2773c456fb100a34ee57f4f50.png\"}",
        "hasOrder": 0,
        "isBindAmb": 0,
        "isAttendClass": 1,
        "days": 408
      },
      "parsed": {}
    }, {
      "entity": {
        "bindTime": 1551166621862,
        "userId": 1055238,
        "wechatName": "滟子",
        "photo": "{\"photo\":\"http://i.s.babyfs.cn/p_30042b8f1eb04883b7c65004b06bea90.jpeg\",\"wxHeadImg\":\"http://i.s.babyfs.cn/p_ec801e7a1f4241d8b2847dbda1068745.jpeg\"}",
        "hasOrder": 0,
        "isBindAmb": 0,
        "isAttendClass": 0,
        "days": 363
      },
      "parsed": {}
    }, {
      "entity": {
        "bindTime": 1551166351585,
        "userId": 3573210,
        "wechatName": "✨💓CJW💓😘",
        "photo": "{\"photo\":\"http://i.s.babyfs.cn/p_6fd8079df20c4dc38f35a2408de81d47.jpeg\",\"wxHeadImg\":\"http://i.s.babyfs.cn/p_fbe7521a1bc44cd1b5c1cb940f3a2ce2.jpeg\"}",
        "hasOrder": 0,
        "isBindAmb": 0,
        "isAttendClass": 1,
        "days": 408
      },
      "parsed": {}
    }, {
      "entity": {
        "bindTime": 1551166173782,
        "userId": 3499666,
        "wechatName": "兰兮",
        "photo": "{\"photo\":\"http://i.s.babyfs.cn/p_a1ceb9cd22db494ebf853fe3e6e419c0.jpeg\",\"wxHeadImg\":\"http://i.s.babyfs.cn/p_28e53ffcfd5844bf8b9f5090e6b71a8d.jpeg\"}",
        "hasOrder": 0,
        "isBindAmb": 0,
        "isAttendClass": 1,
        "days": 408
      },
      "parsed": {}
    }, {
      "entity": {
        "bindTime": 1551165753319,
        "userId": 1133363,
        "wechatName": "Rose",
        "photo": "{\"photo\":\"http://i.s.babyfs.cn/p_91b96e908985485c9c29833f3076cb08.jpeg\"}",
        "hasOrder": 0,
        "isBindAmb": 0,
        "isAttendClass": 0,
        "days": 363
      },
      "parsed": {}
    }, {
      "entity": {
        "bindTime": 1551165383036,
        "userId": 3572892,
        "wechatName": "小满妈妈²⁰¹⁷·₅.₂₁ 🐣",
        "photo": "{\"photo\":\"http://i.s.babyfs.cn/p_633991aa3e7048139c745b763d1b807e.jpeg\",\"wxHeadImg\":\"http://i.s.babyfs.cn/p_329da688fe944c39bd293addfb41890d.jpeg\"}",
        "hasOrder": 0,
        "isBindAmb": 0,
        "isAttendClass": 1,
        "days": 408
      },
      "parsed": {}
    }, {
      "entity": {
        "bindTime": 1551163659446,
        "userId": 1369371,
        "wechatName": "格格",
        "photo": "{\"photo\":\"http://i.s.babyfs.cn/p_6acfe94d9717448784eff32ced3142c7.jpeg\",\"wxHeadImg\":\"http://i.s.babyfs.cn/p_6fe4ea5c9f8e42e19101010f7de9b461.jpeg\"}",
        "hasOrder": 0,
        "isBindAmb": 1,
        "isAttendClass": 1,
        "days": 408
      },
      "parsed": {}
    }, {
      "entity": {
        "bindTime": 1551151039448,
        "userId": 3568674,
        "wechatName": "Sunny",
        "photo": "{\"photo\":\"http://i.s.babyfs.cn/p_6dee5bf8aa3b41a1a05cd61a53453996.jpeg\",\"wxHeadImg\":\"http://i.s.babyfs.cn/p_ce68cfb9a5924978bd76ec6505bec544.jpeg\"}",
        "hasOrder": 0,
        "isBindAmb": 0,
        "isAttendClass": 0,
        "days": 363
      },
      "parsed": {}
    }, {
      "entity": {
        "bindTime": 1551150993173,
        "userId": 3568668,
        "wechatName": "♏Ðа.H🌞ney",
        "photo": "{\"photo\":\"http://i.s.babyfs.cn/p_3602a6f4d082473fa6725deec8c61dd3.jpeg\",\"wxHeadImg\":\"http://i.s.babyfs.cn/p_c121a3cdc95d4daa80d7634e15badf1a.jpeg\"}",
        "hasOrder": 0,
        "isBindAmb": 0,
        "isAttendClass": 1,
        "days": 408
      },
      "parsed": {}
    }, {
      "entity": {
        "bindTime": 1551150958410,
        "userId": 3568644,
        "wechatName": "清風清水",
        "photo": "{\"photo\":\"http://i.s.babyfs.cn/p_4aec2dec09db4831acb800088bc7959a.jpeg\",\"wxHeadImg\":\"http://i.s.babyfs.cn/p_33f6dbcf9a154da39b0966342eac04ff.jpeg\"}",
        "hasOrder": 0,
        "isBindAmb": 0,
        "isAttendClass": 0,
        "days": 363
      },
      "parsed": {}
    }, {
      "entity": {
        "bindTime": 1551150901289,
        "userId": 3568656,
        "wechatName": "wang",
        "photo": "{\"photo\":\"http://i.s.babyfs.cn/p_64e0b07290904dc394382123721cd2dc.jpeg\",\"wxHeadImg\":\"http://i.s.babyfs.cn/p_e8a5fa15981246f0a0c25c31e1558605.jpeg\"}",
        "hasOrder": 0,
        "isBindAmb": 0,
        "isAttendClass": 1,
        "days": 408
      },
      "parsed": {}
    }, {
      "entity": {
        "bindTime": 1551150862513,
        "userId": 3568620,
        "wechatName": "A银行贷款  刘凡",
        "photo": "{\"photo\":\"http://i.s.babyfs.cn/p_113c91e7a6444d3888b083869db56a84.jpeg\",\"wxHeadImg\":\"http://i.s.babyfs.cn/p_d0fae703a96d419ebe62073a1346aa88.jpeg\"}",
        "hasOrder": 0,
        "isBindAmb": 0,
        "isAttendClass": 0,
        "days": 363
      },
      "parsed": {}
    }, {
      "entity": {
        "bindTime": 1551150765805,
        "userId": 3568630,
        "wechatName": " 衫山珊 ",
        "photo": "{\"photo\":\"http://i.s.babyfs.cn/p_537f277bd73d48328e96f326098f136a.jpeg\",\"wxHeadImg\":\"http://i.s.babyfs.cn/p_c814f74fad9346f4bd1295631e9b41ad.jpeg\"}",
        "hasOrder": 0,
        "isBindAmb": 0,
        "isAttendClass": 1,
        "days": 408
      },
      "parsed": {}
    }, {
      "entity": {
        "bindTime": 1551150668707,
        "userId": 3568606,
        "wechatName": "刘伟伟",
        "photo": "{\"photo\":\"http://i.s.babyfs.cn/p_75e28687fb3e491e8be3ba09a0dbab9d.jpeg\",\"wxHeadImg\":\"http://i.s.babyfs.cn/p_52bb848de6fd4650994f6e143723a341.jpeg\"}",
        "hasOrder": 0,
        "isBindAmb": 0,
        "isAttendClass": 1,
        "days": 408
      },
      "parsed": {}
    }, {
      "entity": {
        "bindTime": 1551150456734,
        "userId": 3568563,
        "wechatName": "非凡",
        "photo": "{\"photo\":\"http://i.s.babyfs.cn/p_2b51d015a2f64682b24e94c37c32690c.jpeg\",\"wxHeadImg\":\"http://i.s.babyfs.cn/p_1f1f0f1c9dde4bccb7a067077c571349.jpeg\"}",
        "hasOrder": 0,
        "isBindAmb": 0,
        "isAttendClass": 1,
        "days": 408
      },
      "parsed": {}
    }, {
      "entity": {
        "bindTime": 1551150391030,
        "userId": 3568546,
        "wechatName": "W  、",
        "photo": "{\"photo\":\"http://i.s.babyfs.cn/p_80532fbd0f5c48d99117b3e87c93fa35.jpeg\",\"wxHeadImg\":\"http://i.s.babyfs.cn/p_65e6997c364446c0b54c3ebb5dd3fa18.jpeg\"}",
        "hasOrder": 0,
        "isBindAmb": 0,
        "isAttendClass": 1,
        "days": 408
      },
      "parsed": {}
    }, {
      "entity": {
        "bindTime": 1551150344391,
        "userId": 3568496,
        "wechatName": "ice",
        "photo": "{\"photo\":\"http://i.s.babyfs.cn/p_96a665d4b7964b7fba3d474e53d9f0f2.jpeg\",\"wxHeadImg\":\"http://i.s.babyfs.cn/p_a53e21da44b649f5a7605d78f71384a0.jpeg\"}",
        "hasOrder": 0,
        "isBindAmb": 0,
        "isAttendClass": 1,
        "days": 408
      },
      "parsed": {}
    }, {
      "entity": {
        "bindTime": 1551150287510,
        "userId": 3568512,
        "wechatName": "海明唐",
        "photo": "{\"photo\":\"http://i.s.babyfs.cn/p_7ed46a0d573b4701acfb63446929da31.jpeg\",\"wxHeadImg\":\"http://i.s.babyfs.cn/p_569d6a57e79b4d77ac38165eb633d794.jpeg\"}",
        "hasOrder": 0,
        "isBindAmb": 0,
        "isAttendClass": 1,
        "days": 408
      },
      "parsed": {}
    }],
    "limit": 20,
    "page": 2,
    "totalCount": 194,
    "totalPage": 10
  }
}