{
  "success": true,
  "code": 0,
  "data": {
    "items": [{
      "entity": {
        "bindTime": 1551150218111,
        "userId": 3568460,
        "wechatName": "A卡维达🌷可心麻麻",
        "photo": "{\"photo\":\"http://i.s.babyfs.cn/p_9d2090249e92467e854b4fe1c5bb38ad.jpeg\",\"wxHeadImg\":\"http://i.s.babyfs.cn/p_e0f2ad8bb3494c6b8002ebba61f2e861.jpeg\"}",
        "hasOrder": 0,
        "isBindAmb": 0,
        "isAttendClass": 1,
        "days": 408
      },
      "parsed": {}
    }, {
      "entity": {
        "bindTime": 1551150121723,
        "userId": 3568428,
        "wechatName": "张庆华",
        "photo": "{\"photo\":\"http://i.s.babyfs.cn/p_9782f7ce47984c31a5822822fd32752f.jpeg\",\"wxHeadImg\":\"http://i.s.babyfs.cn/p_5fa4b846a5b54ba783fcd87ef3f450d5.jpeg\"}",
        "hasOrder": 0,
        "isBindAmb": 0,
        "isAttendClass": 1,
        "days": 408
      },
      "parsed": {}
    }, {
      "entity": {
        "bindTime": 1551150082931,
        "userId": 3568469,
        "wechatName": "薛丹",
        "photo": "{\"photo\":\"http://i.s.babyfs.cn/p_4b3ec6c04ccd4ff6b4ebda9f3532cbc0.jpeg\",\"wxHeadImg\":\"http://i.s.babyfs.cn/p_cef19c8b05134ad88f7abeb1e1e8629e.jpeg\"}",
        "hasOrder": 0,
        "isBindAmb": 0,
        "isAttendClass": 1,
        "days": 408
      },
      "parsed": {}
    }, {
      "entity": {
        "bindTime": 1551150002603,
        "userId": 3568443,
        "wechatName": "静六六",
        "photo": "{\"photo\":\"http://i.s.babyfs.cn/p_2f087b6abb6c438ea68ccc71feb1f86a.jpeg\",\"wxHeadImg\":\"http://i.s.babyfs.cn/p_63f2461cbdf741dc97a57865be426f29.jpeg\"}",
        "hasOrder": 0,
        "isBindAmb": 0,
        "isAttendClass": 0,
        "days": 363
      },
      "parsed": {}
    }, {
      "entity": {
        "bindTime": 1551146730065,
        "userId": 3567668,
        "wechatName": "大米粒儿",
        "photo": "{\"photo\":\"http://i.s.babyfs.cn/p_d843ea5a617d4d8aaada10663612332b.jpeg\"}",
        "hasOrder": 0,
        "isBindAmb": 0,
        "isAttendClass": 1,
        "days": 408
      },
      "parsed": {}
    }, {
      "entity": {
        "bindTime": 1551140139119,
        "userId": 3566221,
        "wechatName": "冰冰",
        "photo": "{\"photo\":\"http://i.s.babyfs.cn/p_ea79c7682bed4380b4c81da2aee65bb8.jpeg\",\"wxHeadImg\":\"http://i.s.babyfs.cn/p_e8c197abeeb8430ebb2b70fef2f0894a.jpeg\"}",
        "hasOrder": 0,
        "isBindAmb": 0,
        "isAttendClass": 1,
        "days": 408
      },
      "parsed": {}
    }, {
      "entity": {
        "bindTime": 1551096847277,
        "userId": 3559818,
        "wechatName": "秦点点",
        "photo": "{\"photo\":\"http://i.s.babyfs.cn/p_6f1aac66e4584f70939f6a11fd4581f7.jpeg\",\"wxHeadImg\":\"http://i.s.babyfs.cn/p_cea29dddb847425caa43dbd65bb52c1b.jpeg\"}",
        "hasOrder": 0,
        "isBindAmb": 0,
        "isAttendClass": 1,
        "days": 407
      },
      "parsed": {}
    }, {
      "entity": {
        "bindTime": 1551094980708,
        "userId": 1081299,
        "wechatName": "morning light酱",
        "photo": "{\"photo\":\"http://i.s.babyfs.cn/p_a97ad257112f49d79fbb986eac84f24b.jpeg\",\"wxHeadImg\":\"http://i.s.babyfs.cn/p_19d8cf03160340cfb4623851ddf19c2e.jpeg\"}",
        "hasOrder": 0,
        "isBindAmb": 0,
        "isAttendClass": 1,
        "days": 407
      },
      "parsed": {}
    }, {
      "entity": {
        "bindTime": 1551091667094,
        "userId": 3558009,
        "wechatName": "大雪",
        "photo": "{\"photo\":\"http://i.s.babyfs.cn/p_8606074d4cb54eadac1dc560b0eb643e.jpeg\",\"wxHeadImg\":\"http://i.s.babyfs.cn/p_53fec55ead0b4786a40711dec350870b.jpeg\"}",
        "hasOrder": 0,
        "isBindAmb": 0,
        "isAttendClass": 1,
        "days": 407
      },
      "parsed": {}
    }, {
      "entity": {
        "bindTime": 1551091414491,
        "userId": 2715244,
        "wechatName": "慕哥妈",
        "photo": "{\"photo\":\"http://i.s.babyfs.cn/p_16281129d6624e27956fe40ff4c9bc9c.jpeg\"}",
        "hasOrder": 0,
        "isBindAmb": 0,
        "isAttendClass": 1,
        "days": 407
      },
      "parsed": {}
    }, {
      "entity": {
        "bindTime": 1551089505988,
        "userId": 3557606,
        "wechatName": "水韵儿",
        "photo": "{\"photo\":\"http://i.s.babyfs.cn/p_afb4207f3ea44022b70c5e1e86d3f7db.jpeg\",\"wxHeadImg\":\"http://i.s.babyfs.cn/p_105ae6851ede4ef49f9d2de624cd4b61.jpeg\"}",
        "hasOrder": 0,
        "isBindAmb": 0,
        "isAttendClass": 1,
        "days": 407
      },
      "parsed": {}
    }, {
      "entity": {
        "bindTime": 1551078978944,
        "userId": 521277,
        "wechatName": "大然然",
        "photo": "{\"photo\":\"http://i.s.babyfs.cn/p_1f13c87eac104e84b4f2f45ccd1bb86a.jpeg\",\"wxHeadImg\":\"http://i.s.babyfs.cn/p_e85f04b11c994de88e325e2709b313bf.jpeg\"}",
        "hasOrder": 0,
        "isBindAmb": 0,
        "isAttendClass": 1,
        "days": 407
      },
      "parsed": {}
    }, {
      "entity": {
        "bindTime": 1551075786222,
        "userId": 3555012,
        "wechatName": "媛媛媛",
        "photo": "{\"photo\":\"http://i.s.babyfs.cn/p_17d9798688124eb89b873d559b27b54c.jpeg\"}",
        "hasOrder": 0,
        "isBindAmb": 0,
        "isAttendClass": 1,
        "days": 407
      },
      "parsed": {}
    }, {
      "entity": {
        "bindTime": 1551073878761,
        "userId": 3554515,
        "wechatName": "提拉米苏",
        "photo": "{\"photo\":\"http://i.s.babyfs.cn/p_e78bd72943fa4552b122e1a2e7b8396a.jpeg\",\"wxHeadImg\":\"http://i.s.babyfs.cn/p_ed2568e1f32742efa9ee20524861f3b3.jpeg\"}",
        "hasOrder": 0,
        "isBindAmb": 0,
        "isAttendClass": 1,
        "days": 407
      },
      "parsed": {}
    }, {
      "entity": {
        "bindTime": 1551073823001,
        "userId": 3554494,
        "wechatName": "秋刀麻袋",
        "photo": "{\"photo\":\"http://i.s.babyfs.cn/p_ac7883a4651843cda9d14ffae994e034.jpeg\",\"wxHeadImg\":\"http://i.s.babyfs.cn/p_201e1c8014aa4e52b4368c77fc127c04.jpeg\"}",
        "hasOrder": 0,
        "isBindAmb": 0,
        "isAttendClass": 1,
        "days": 407
      },
      "parsed": {}
    }, {
      "entity": {
        "bindTime": 1551073375212,
        "userId": 3554306,
        "wechatName": "默默",
        "photo": "{\"photo\":\"http://i.s.babyfs.cn/p_af16975ad8374ab0a606722030779467.jpeg\",\"wxHeadImg\":\"http://i.s.babyfs.cn/p_d901da9c18fa42748ff9f727209a22f7.jpeg\"}",
        "hasOrder": 0,
        "isBindAmb": 0,
        "isAttendClass": 0,
        "days": 362
      },
      "parsed": {}
    }, {
      "entity": {
        "bindTime": 1551072671803,
        "userId": 3554198,
        "wechatName": "于鹏",
        "photo": "{\"photo\":\"http://i.s.babyfs.cn/p_fc8bab43f5614727bc7de22790a86812.jpeg\"}",
        "hasOrder": 0,
        "isBindAmb": 0,
        "isAttendClass": 0,
        "days": 362
      },
      "parsed": {}
    }, {
      "entity": {
        "bindTime": 1551072649409,
        "userId": 3554192,
        "wechatName": "安俊儒",
        "photo": "{\"photo\":\"http://i.s.babyfs.cn/p_659655fb7cd943a9a09569410c65e569.jpeg\",\"wxHeadImg\":\"http://i.s.babyfs.cn/p_7793b08e059f4bef89797c011681cd79.jpeg\"}",
        "hasOrder": 0,
        "isBindAmb": 0,
        "isAttendClass": 1,
        "days": 407
      },
      "parsed": {}
    }, {
      "entity": {
        "bindTime": 1551072434961,
        "userId": 3554163,
        "wechatName": "丫头",
        "photo": "{\"photo\":\"http://i.s.babyfs.cn/p_bcbe11764b24446495014fdcff75c2de.jpeg\",\"wxHeadImg\":\"http://i.s.babyfs.cn/p_12f87f563f3a4b50b92ef7f5ba950ac8.jpeg\"}",
        "hasOrder": 0,
        "isBindAmb": 0,
        "isAttendClass": 1,
        "days": 407
      },
      "parsed": {}
    }, {
      "entity": {
        "bindTime": 1551070195733,
        "userId": 1305249,
        "wechatName": "爱在",
        "hasOrder": 0,
        "isBindAmb": 0,
        "isAttendClass": 1,
        "days": 407
      },
      "parsed": {}
    }],
    "limit": 20,
    "page": 3,
    "totalCount": 194,
    "totalPage": 10
  }
}