{
  "success": true,
  "code": 0,
  "data": {
    "items": [{
      "entity": {
        "bindTime": 1551068657261,
        "userId": 3553511,
        "wechatName": "baby麻麻😘",
        "photo": "{\"photo\":\"http://i.s.babyfs.cn/p_55a1f4c9071b4a3aaed5afdb699e654d.jpeg\",\"wxHeadImg\":\"http://i.s.babyfs.cn/p_8cac277b36a6490e828e092d6e9c08b3.jpeg\"}",
        "hasOrder": 0,
        "isBindAmb": 0,
        "isAttendClass": 1,
        "days": 407
      },
      "parsed": {}
    }, {
      "entity": {
        "bindTime": 1551068112754,
        "userId": 3553433,
        "wechatName": "姜梅-15994363174",
        "photo": "{\"photo\":\"http://i.s.babyfs.cn/p_a11730883b1248e7a654d5c14e9c85a7.jpeg\",\"wxHeadImg\":\"http://i.s.babyfs.cn/p_3992ff50912642e59b5ff51ed7877c7b.jpeg\"}",
        "hasOrder": 0,
        "isBindAmb": 0,
        "isAttendClass": 1,
        "days": 407
      },
      "parsed": {}
    }, {
      "entity": {
        "bindTime": 1551067745645,
        "userId": 3553363,
        "wechatName": "孩子学习最重要👍👍",
        "photo": "{\"photo\":\"http://i.s.babyfs.cn/p_d9f46a3c818c4401a5d578bd85198a65.jpeg\",\"wxHeadImg\":\"http://i.s.babyfs.cn/p_39e7a345fff544ae811b3516f118487a.jpeg\"}",
        "hasOrder": 0,
        "isBindAmb": 0,
        "isAttendClass": 1,
        "days": 407
      },
      "parsed": {}
    }, {
      "entity": {
        "bindTime": 1551067733390,
        "userId": 3553342,
        "wechatName": "心情",
        "photo": "{\"photo\":\"http://i.s.babyfs.cn/p_7f8364e633d2422681c1ddc2ec5fe0ae.jpeg\",\"wxHeadImg\":\"http://i.s.babyfs.cn/p_2ddb512c76e244b1a7054a4ea241fc4c.jpeg\"}",
        "hasOrder": 0,
        "isBindAmb": 0,
        "isAttendClass": 1,
        "days": 407
      },
      "parsed": {}
    }, {
      "entity": {
        "bindTime": 1551067518991,
        "userId": 3553246,
        "wechatName": " LilY ",
        "photo": "{\"photo\":\"http://i.s.babyfs.cn/p_1f67e4f411d645998dbf5b97bfcbfa35.jpeg\",\"wxHeadImg\":\"http://i.s.babyfs.cn/p_54a2936a94ae480fb6d2031b0f64596f.jpeg\"}",
        "hasOrder": 0,
        "isBindAmb": 0,
        "isAttendClass": 1,
        "days": 407
      },
      "parsed": {}
    }, {
      "entity": {
        "bindTime": 1551067471090,
        "userId": 3553321,
        "wechatName": "寧豫",
        "photo": "{\"photo\":\"http://i.s.babyfs.cn/p_431703bd379242dca246db4e6fe2ce1e.jpeg\",\"wxHeadImg\":\"http://i.s.babyfs.cn/p_b06e6d349af54205b3b3703728116cd2.jpeg\"}",
        "hasOrder": 0,
        "isBindAmb": 0,
        "isAttendClass": 1,
        "days": 407
      },
      "parsed": {}
    }, {
      "entity": {
        "bindTime": 1551067437057,
        "userId": 3553315,
        "wechatName": "baby",
        "photo": "{\"photo\":\"http://i.s.babyfs.cn/p_81066f49a374417bbc24842e2fbd3f64.jpeg\",\"wxHeadImg\":\"http://i.s.babyfs.cn/p_f1ee05beab5449d4b2e010a42f70c178.jpeg\"}",
        "hasOrder": 0,
        "isBindAmb": 0,
        "isAttendClass": 0,
        "days": 362
      },
      "parsed": {}
    }, {
      "entity": {
        "bindTime": 1551067374127,
        "userId": 3553308,
        "wechatName": "^o^ing～",
        "photo": "{\"photo\":\"http://i.s.babyfs.cn/p_6ab0e83ffbc64ab3af16bd582672d492.jpeg\",\"wxHeadImg\":\"http://i.s.babyfs.cn/p_fba1a8fe99924f92b87631838299c4bf.jpeg\"}",
        "hasOrder": 0,
        "isBindAmb": 0,
        "isAttendClass": 1,
        "days": 407
      },
      "parsed": {}
    }, {
      "entity": {
        "bindTime": 1551067356162,
        "userId": 3553302,
        "wechatName": "Abby ",
        "photo": "{\"photo\":\"http://i.s.babyfs.cn/p_e6d9c4b90f3a4e02bfc6231e92d8b057.jpeg\",\"wxHeadImg\":\"http://i.s.babyfs.cn/p_e78abeece1454b389335b14e51e4ab13.jpeg\"}",
        "hasOrder": 0,
        "isBindAmb": 0,
        "isAttendClass": 1,
        "days": 407
      },
      "parsed": {}
    }, {
      "entity": {
        "bindTime": 1551067291088,
        "userId": 3553274,
        "wechatName": "蒋丽香",
        "photo": "{\"photo\":\"http://i.s.babyfs.cn/p_f1b40640b4d64da3916e2ae632d061df.jpeg\",\"wxHeadImg\":\"http://i.s.babyfs.cn/p_6f1dc142842846ebb9010c99fa3f8050.jpeg\"}",
        "hasOrder": 0,
        "isBindAmb": 0,
        "isAttendClass": 1,
        "days": 407
      },
      "parsed": {}
    }, {
      "entity": {
        "bindTime": 1551067290375,
        "userId": 3553279,
        "wechatName": "WQ萌萌",
        "photo": "{\"photo\":\"http://i.s.babyfs.cn/p_8263605184864205906913ae3b23ed13.jpeg\",\"wxHeadImg\":\"http://i.s.babyfs.cn/p_2289e63cee204e5cafd90f6b5b428c72.jpeg\"}",
        "hasOrder": 0,
        "isBindAmb": 0,
        "isAttendClass": 1,
        "days": 407
      },
      "parsed": {}
    }, {
      "entity": {
        "bindTime": 1551067262087,
        "userId": 3553281,
        "wechatName": "李艳",
        "photo": "{\"photo\":\"http://i.s.babyfs.cn/p_4cb1090a34884a33a3dfc08d62ec3daa.jpeg\"}",
        "hasOrder": 0,
        "isBindAmb": 0,
        "isAttendClass": 0,
        "days": 362
      },
      "parsed": {}
    }, {
      "entity": {
        "bindTime": 1551067228095,
        "userId": 3553269,
        "wechatName": "仲夏小野猫",
        "photo": "{\"photo\":\"http://i.s.babyfs.cn/p_cd5fb13c7cf143939d4fbcc008c42558.jpeg\",\"wxHeadImg\":\"http://i.s.babyfs.cn/p_025296727e154355b05b6456c16bd67d.jpeg\"}",
        "hasOrder": 0,
        "isBindAmb": 0,
        "isAttendClass": 1,
        "days": 407
      },
      "parsed": {}
    }, {
      "entity": {
        "bindTime": 1551057786308,
        "userId": 1222473,
        "wechatName": "  美错",
        "photo": "{\"photo\":\"http://i.s.babyfs.cn/p_a44092f4875240a29841f7c38e17d852.jpeg\",\"wxHeadImg\":\"http://i.s.babyfs.cn/p_0a3be4b621d84bd2827b32e26e7e5fba.jpeg\"}",
        "hasOrder": 0,
        "isBindAmb": 0,
        "isAttendClass": 1,
        "days": 407
      },
      "parsed": {}
    }, {
      "entity": {
        "bindTime": 1550979656944,
        "userId": 3542197,
        "wechatName": "过往",
        "photo": "{\"photo\":\"http://i.s.babyfs.cn/p_95b0d845e9ae4bcda883a22d815d09f9.jpeg\",\"wxHeadImg\":\"http://i.s.babyfs.cn/p_538a7bbb13ab45a7b2be21810d8d5cb0.jpeg\"}",
        "hasOrder": 0,
        "isBindAmb": 0,
        "isAttendClass": 0,
        "days": 361
      },
      "parsed": {}
    }, {
      "entity": {
        "bindTime": 1550976689057,
        "userId": 3540727,
        "wechatName": "茫然.萍",
        "photo": "{\"photo\":\"http://i.s.babyfs.cn/p_fd415eeff5124000af684a9fb243c7fd.jpeg\",\"wxHeadImg\":\"http://i.s.babyfs.cn/p_6c8dcf14b8634c94b806e4e11e781f56.jpeg\"}",
        "hasOrder": 0,
        "isBindAmb": 0,
        "isAttendClass": 1,
        "days": 406
      },
      "parsed": {}
    }, {
      "entity": {
        "bindTime": 1550974859473,
        "userId": 3539475,
        "wechatName": "梅",
        "photo": "{\"photo\":\"http://i.s.babyfs.cn/p_02394c8bdf5c4cfda57bbd30bf13d227.jpeg\",\"wxHeadImg\":\"http://i.s.babyfs.cn/p_e46b3cb892a740be96141006ac05b15b.jpeg\"}",
        "hasOrder": 0,
        "isBindAmb": 0,
        "isAttendClass": 1,
        "days": 406
      },
      "parsed": {}
    }, {
      "entity": {
        "bindTime": 1550974649741,
        "userId": 3540715,
        "wechatName": "lina",
        "photo": "{\"photo\":\"http://i.s.babyfs.cn/p_3ccc940a1ed547d88fc5a8254fcb48cc.jpeg\",\"wxHeadImg\":\"http://i.s.babyfs.cn/p_b6d12d2da67f47faa587dc6a732e8101.jpeg\"}",
        "hasOrder": 0,
        "isBindAmb": 0,
        "isAttendClass": 1,
        "days": 406
      },
      "parsed": {}
    }, {
      "entity": {
        "bindTime": 1550974636712,
        "userId": 3540772,
        "wechatName": "郭术芳",
        "photo": "{\"photo\":\"http://i.s.babyfs.cn/p_ed90947d885b4a37bd9e5fd710d02679.jpeg\",\"wxHeadImg\":\"http://i.s.babyfs.cn/p_00bd2332ecc545ddbd1d10fa32a2af97.jpeg\"}",
        "hasOrder": 0,
        "isBindAmb": 0,
        "isAttendClass": 1,
        "days": 406
      },
      "parsed": {}
    }, {
      "entity": {
        "bindTime": 1550974616949,
        "userId": 3540711,
        "wechatName": "hosam",
        "photo": "{\"photo\":\"http://i.s.babyfs.cn/p_60fa83bac71c442eab24eaad41e077f9.jpeg\",\"wxHeadImg\":\"http://i.s.babyfs.cn/p_c69bf69469454515b41049ffdc7908f8.jpeg\"}",
        "hasOrder": 0,
        "isBindAmb": 0,
        "isAttendClass": 1,
        "days": 406
      },
      "parsed": {}
    }],
    "limit": 20,
    "page": 4,
    "totalCount": 194,
    "totalPage": 10
  }
}