{
  "success": true,
  "code": 0,
  "data": {
    "items": [{
      "entity": {
        "bindTime": 1550974355127,
        "userId": 3540753,
        "wechatName": "小小眠",
        "photo": "{\"photo\":\"http://i.s.babyfs.cn/p_a7f01b0ebaf949f3bd31acbf25be9b4a.jpeg\",\"wxHeadImg\":\"http://i.s.babyfs.cn/p_4d5490591b324362854334faf520b7cb.jpeg\"}",
        "hasOrder": 0,
        "isBindAmb": 0,
        "isAttendClass": 1,
        "days": 406
      },
      "parsed": {}
    }, {
      "entity": {
        "bindTime": 1550974353495,
        "userId": 3540775,
        "wechatName": "苹果片片",
        "photo": "{\"photo\":\"http://i.s.babyfs.cn/p_54ec8708e106401683bb441555bb4901.jpeg\",\"wxHeadImg\":\"http://i.s.babyfs.cn/p_6ae760149e8a4a05b94d5ef2d2f81c48.jpeg\"}",
        "hasOrder": 0,
        "isBindAmb": 0,
        "isAttendClass": 1,
        "days": 406
      },
      "parsed": {}
    }, {
      "entity": {
        "bindTime": 1550974333589,
        "userId": 3540736,
        "wechatName": "姚",
        "photo": "{\"photo\":\"http://i.s.babyfs.cn/p_b7b40b0523d540ce9b18f536242a4f1e.jpeg\",\"wxHeadImg\":\"http://i.s.babyfs.cn/p_e9213876d9d444939c76b62d52cf8303.jpeg\"}",
        "hasOrder": 0,
        "isBindAmb": 0,
        "isAttendClass": 1,
        "days": 406
      },
      "parsed": {}
    }, {
      "entity": {
        "bindTime": 1550974328747,
        "userId": 3540756,
        "wechatName": "XiaoYYYYu🌀",
        "photo": "{\"photo\":\"http://i.s.babyfs.cn/p_7b7c2768a74a4ab2a3ea21f353d8a9d0.jpeg\",\"wxHeadImg\":\"http://i.s.babyfs.cn/p_6983bc4f505d48ca823f6250c4c9a528.jpeg\"}",
        "hasOrder": 0,
        "isBindAmb": 0,
        "isAttendClass": 1,
        "days": 406
      },
      "parsed": {}
    }, {
      "entity": {
        "bindTime": 1550939305784,
        "userId": 3538150,
        "wechatName": "*^_^*",
        "photo": "{\"photo\":\"http://i.s.babyfs.cn/p_91cb561fbed5431183df605be58a6524.jpeg\",\"wxHeadImg\":\"http://i.s.babyfs.cn/p_2911dbf31fae43908e6f786214818679.jpeg\"}",
        "hasOrder": 0,
        "isBindAmb": 0,
        "isAttendClass": 1,
        "days": 406
      },
      "parsed": {}
    }, {
      "entity": {
        "bindTime": 1550938997593,
        "userId": 3538136,
        "wechatName": "静思",
        "photo": "{\"photo\":\"http://i.s.babyfs.cn/p_0b7bfab2e3ba4af2ba1fdf5c40de5dbe.jpeg\",\"wxHeadImg\":\"http://i.s.babyfs.cn/p_e6b6d0772ff54d9f9ec04a41a6410d2d.jpeg\"}",
        "hasOrder": 0,
        "isBindAmb": 0,
        "isAttendClass": 1,
        "days": 406
      },
      "parsed": {}
    }, {
      "entity": {
        "bindTime": 1550938865973,
        "userId": 124137,
        "wechatName": "拾一",
        "photo": "{\"photo\":\"http://i.s.babyfs.cn/124137/ae636dc7cfae4cb9a7c7da1962a0b74c.jpg\",\"wxHeadImg\":\"http://i.s.babyfs.cn/p_4d599e5b00d5458b8ed923033bafed13.jpeg\"}",
        "hasOrder": 0,
        "isBindAmb": 0,
        "isAttendClass": 1,
        "days": 406
      },
      "parsed": {}
    }, {
      "entity": {
        "bindTime": 1550928853933,
        "userId": 3536801,
        "wechatName": "Jane欢欢 ²⁰¹⁶ ₀₄.₁₇",
        "photo": "{\"photo\":\"http://i.s.babyfs.cn/p_fa8d18ca5cae4f629d0f10f5396fcf76.jpeg\",\"wxHeadImg\":\"http://i.s.babyfs.cn/p_ce1f4e4516894530ad4b41742eb7443a.jpeg\"}",
        "hasOrder": 0,
        "isBindAmb": 0,
        "isAttendClass": 1,
        "days": 406
      },
      "parsed": {}
    }, {
      "entity": {
        "bindTime": 1550927634446,
        "userId": 3536483,
        "wechatName": "于",
        "photo": "{\"photo\":\"http://i.s.babyfs.cn/p_6f7c225ef53c40bc983936394f09d6dc.jpeg\",\"wxHeadImg\":\"http://i.s.babyfs.cn/p_995e1d8f5be14ebba68ce08722843f2b.jpeg\"}",
        "hasOrder": 0,
        "isBindAmb": 0,
        "isAttendClass": 0,
        "days": 360
      },
      "parsed": {}
    }, {
      "entity": {
        "bindTime": 1550923322440,
        "userId": 3535522,
        "wechatName": "晒太阳的猫儿",
        "photo": "{\"photo\":\"http://i.s.babyfs.cn/p_aa35bdcc84bb431599aec1d041169168.jpeg\",\"wxHeadImg\":\"http://i.s.babyfs.cn/p_8e513037fe2f4b3f9af9b96b7b4af753.jpeg\"}",
        "hasOrder": 0,
        "isBindAmb": 0,
        "isAttendClass": 1,
        "days": 405
      },
      "parsed": {}
    }, {
      "entity": {
        "bindTime": 1550922566281,
        "userId": 3535389,
        "wechatName": "🌻",
        "photo": "{\"photo\":\"http://i.s.babyfs.cn/p_bbde518856be4f35935d5ecc3f5daf41.jpeg\",\"wxHeadImg\":\"http://i.s.babyfs.cn/p_2067a2b76e8344a18312eea64f790daa.jpeg\"}",
        "hasOrder": 0,
        "isBindAmb": 0,
        "isAttendClass": 1,
        "days": 405
      },
      "parsed": {}
    }, {
      "entity": {
        "bindTime": 1550922544799,
        "userId": 3535361,
        "wechatName": "花开的声音",
        "photo": "{\"photo\":\"http://i.s.babyfs.cn/p_c2092210d17842cf9fdeadead946fd98.jpeg\",\"wxHeadImg\":\"http://i.s.babyfs.cn/p_ea946843a887401085038b3785e89e2e.jpeg\"}",
        "hasOrder": 0,
        "isBindAmb": 0,
        "isAttendClass": 1,
        "days": 405
      },
      "parsed": {}
    }, {
      "entity": {
        "bindTime": 1550921965663,
        "userId": 3535249,
        "wechatName": "丽丽    承接早妆跟妆13936426014",
        "photo": "{\"photo\":\"http://i.s.babyfs.cn/p_4540551c66b3454b830aaa8cd74aab93.jpeg\",\"wxHeadImg\":\"http://i.s.babyfs.cn/p_2b2e9c8fb7294257b98e456795e6d2c1.jpeg\"}",
        "hasOrder": 0,
        "isBindAmb": 0,
        "isAttendClass": 1,
        "days": 405
      },
      "parsed": {}
    }, {
      "entity": {
        "bindTime": 1550921921786,
        "userId": 3535157,
        "wechatName": "妈妈咪呀",
        "photo": "{\"photo\":\"http://i.s.babyfs.cn/p_aed02a0285f14bbea926ae4d6f58b93b.jpeg\",\"wxHeadImg\":\"http://i.s.babyfs.cn/p_baed39040e9e4bfa9992094a7a52b2c6.jpeg\"}",
        "hasOrder": 0,
        "isBindAmb": 0,
        "isAttendClass": 0,
        "days": 360
      },
      "parsed": {}
    }, {
      "entity": {
        "bindTime": 1550921649726,
        "userId": 3535168,
        "wechatName": "许甜甜",
        "photo": "{\"photo\":\"http://i.s.babyfs.cn/p_5c949b92626d4ff6b414e1105574f826.jpeg\",\"wxHeadImg\":\"http://i.s.babyfs.cn/p_5824c7eea54248bdb4d37fcf32308eaf.jpeg\"}",
        "hasOrder": 0,
        "isBindAmb": 0,
        "isAttendClass": 0,
        "days": 360
      },
      "parsed": {}
    }, {
      "entity": {
        "bindTime": 1550919373002,
        "userId": 1011888,
        "wechatName": "思",
        "photo": "{\"photo\":\"http://i.s.babyfs.cn/p_581afaec669f4c7f93c23a5a310f3024.jpeg\",\"wxHeadImg\":\"http://i.s.babyfs.cn/p_bdacd62a990c48a9a14f9655030c292b.jpeg\"}",
        "hasOrder": 0,
        "isBindAmb": 0,
        "isAttendClass": 0,
        "days": 360
      },
      "parsed": {}
    }, {
      "entity": {
        "bindTime": 1550917268695,
        "userId": 3522189,
        "wechatName": "💗默^o^",
        "photo": "{\"photo\":\"http://i.s.babyfs.cn/p_338dd72ff4eb48d0a5063784e16a0a7d.jpeg\",\"wxHeadImg\":\"http://i.s.babyfs.cn/p_fef2e03569684852b66705309ee3f261.jpeg\"}",
        "hasOrder": 0,
        "isBindAmb": 0,
        "isAttendClass": 1,
        "days": 405
      },
      "parsed": {}
    }, {
      "entity": {
        "bindTime": 1550850972285,
        "userId": 1276438,
        "wechatName": "君",
        "photo": "{\"photo\":\"http://i.s.babyfs.cn/p_27011e01f7f542ceab69e03d5e401a30.jpeg\",\"wxHeadImg\":\"http://i.s.babyfs.cn/p_91a5e03df9214e21bbae3b45c3045dfe.jpeg\"}",
        "hasOrder": 0,
        "isBindAmb": 0,
        "isAttendClass": 0,
        "days": 360
      },
      "parsed": {}
    }, {
      "entity": {
        "bindTime": 1550839472032,
        "userId": 1122961,
        "wechatName": "胡磊",
        "photo": "{\"photo\":\"http://i.s.babyfs.cn/p_6a6458479b384fa2838f470428a7cb5c.jpeg\",\"wxHeadImg\":\"http://i.s.babyfs.cn/p_82f2d7ee61db4e0ca23e4c4abc3fae0f.jpeg\"}",
        "hasOrder": 0,
        "isBindAmb": 0,
        "isAttendClass": 1,
        "days": 404
      },
      "parsed": {}
    }, {
      "entity": {
        "bindTime": 1550798531806,
        "userId": 3512880,
        "wechatName": "朗朗",
        "photo": "{\"photo\":\"http://i.s.babyfs.cn/p_0154e5207fe34e19bc18e51cabad2d9b.jpeg\",\"wxHeadImg\":\"http://i.s.babyfs.cn/p_d79f08ef07174f0eaad6138b6f46b238.jpeg\"}",
        "hasOrder": 0,
        "isBindAmb": 0,
        "isAttendClass": 0,
        "days": 359
      },
      "parsed": {}
    }],
    "limit": 20,
    "page": 5,
    "totalCount": 194,
    "totalPage": 10
  }
}