{
  "success": true,
  "code": 0,
  "data": {
    "items": [{
      "entity": {
        "bindTime": 1550797806540,
        "userId": 3512883,
        "wechatName": "A-💞阿荣",
        "photo": "{\"photo\":\"http://i.s.babyfs.cn/p_7caa14849efb46f38d6dbda0fe9e3b8e.jpeg\",\"wxHeadImg\":\"http://i.s.babyfs.cn/p_db93bcaf31cb4b678c9d598c458c5712.jpeg\"}",
        "hasOrder": 0,
        "isBindAmb": 0,
        "isAttendClass": 1,
        "days": 404
      },
      "parsed": {}
    }, {
      "entity": {
        "bindTime": 1550797685459,
        "userId": 3512971,
        "wechatName": "Crystal",
        "photo": "{\"photo\":\"http://i.s.babyfs.cn/p_a118eb86a2da4056b73152f397cbdbab.jpeg\",\"wxHeadImg\":\"http://i.s.babyfs.cn/p_04a4491c9be148d282b464d7bd518eee.jpeg\"}",
        "hasOrder": 0,
        "isBindAmb": 0,
        "isAttendClass": 0,
        "days": 359
      },
      "parsed": {}
    }, {
      "entity": {
        "bindTime": 1550797682780,
        "userId": 3512980,
        "wechatName": "兔子警官",
        "photo": "{\"photo\":\"http://i.s.babyfs.cn/p_c9acb28420e444e88c6e60caafa9eecb.jpeg\",\"wxHeadImg\":\"http://i.s.babyfs.cn/p_5ab9003d2df74c02b45c25abb3e90816.jpeg\"}",
        "hasOrder": 0,
        "isBindAmb": 0,
        "isAttendClass": 1,
        "days": 404
      },
      "parsed": {}
    }, {
      "entity": {
        "bindTime": 1550797680228,
        "userId": 1111895,
        "wechatName": "晓妈*二华宝",
        "photo": "{\"photo\":\"http://i.s.babyfs.cn/p_5737f27536844506b95941d08fe8b133.jpeg\",\"wxHeadImg\":\"http://i.s.babyfs.cn/p_df6f9449c7ec4e14a7f091b5dc457320.jpeg\"}",
        "hasOrder": 0,
        "isBindAmb": 0,
        "isAttendClass": 0,
        "days": 359
      },
      "parsed": {}
    }, {
      "entity": {
        "bindTime": 1550797626112,
        "userId": 3512955,
        "wechatName": "上上签Lhy",
        "photo": "{\"photo\":\"http://i.s.babyfs.cn/p_1ce38af5e7724838a26992bce2e82ae8.jpeg\",\"wxHeadImg\":\"http://i.s.babyfs.cn/p_896a6c0003ec4d98b4a1161d3e295207.jpeg\"}",
        "hasOrder": 0,
        "isBindAmb": 0,
        "isAttendClass": 1,
        "days": 404
      },
      "parsed": {}
    }, {
      "entity": {
        "bindTime": 1550797619614,
        "userId": 3512957,
        "wechatName": "绿山墙",
        "photo": "{\"photo\":\"http://i.s.babyfs.cn/p_895e2093f0e04874b92e11c54d01123c.jpeg\",\"wxHeadImg\":\"http://i.s.babyfs.cn/p_9c53deb02f9948269e973f5bad34d134.jpeg\"}",
        "hasOrder": 0,
        "isBindAmb": 0,
        "isAttendClass": 0,
        "days": 359
      },
      "parsed": {}
    }, {
      "entity": {
        "bindTime": 1550797614504,
        "userId": 3512951,
        "wechatName": "886",
        "photo": "{\"photo\":\"http://i.s.babyfs.cn/p_508ad7a69ed7488e933d7c2612432538.jpeg\",\"wxHeadImg\":\"http://i.s.babyfs.cn/p_4b10074d8e4c4b8f81059a2cfdd05117.jpeg\"}",
        "hasOrder": 0,
        "isBindAmb": 0,
        "isAttendClass": 0,
        "days": 359
      },
      "parsed": {}
    }, {
      "entity": {
        "bindTime": 1550797586003,
        "userId": 3512929,
        "wechatName": "乙辛",
        "photo": "{\"photo\":\"http://i.s.babyfs.cn/p_feaba05b936542ceb30cdcb955c3bcbf.jpeg\",\"wxHeadImg\":\"http://i.s.babyfs.cn/p_4d1ea13f3eb24276abe07a9dc0ad8317.jpeg\"}",
        "hasOrder": 0,
        "isBindAmb": 0,
        "isAttendClass": 1,
        "days": 404
      },
      "parsed": {}
    }, {
      "entity": {
        "bindTime": 1550797582833,
        "userId": 3512891,
        "wechatName": "🎐梦梦",
        "photo": "{\"photo\":\"http://i.s.babyfs.cn/p_773ceca484d4474e8c2c9143bed18ab5.jpeg\",\"wxHeadImg\":\"http://i.s.babyfs.cn/p_f235ae81d2af42da99473e024f5dc192.jpeg\"}",
        "hasOrder": 0,
        "isBindAmb": 0,
        "isAttendClass": 1,
        "days": 404
      },
      "parsed": {}
    }, {
      "entity": {
        "bindTime": 1550797577700,
        "userId": 3512921,
        "wechatName": "**幸福**",
        "photo": "{\"photo\":\"http://i.s.babyfs.cn/p_21244dac285e4543a772a950be44d8c2.jpeg\",\"wxHeadImg\":\"http://i.s.babyfs.cn/p_fe682b84b6b14db19493fb30548f2cc4.jpeg\"}",
        "hasOrder": 0,
        "isBindAmb": 0,
        "isAttendClass": 1,
        "days": 404
      },
      "parsed": {}
    }, {
      "entity": {
        "bindTime": 1550797571687,
        "userId": 3512936,
        "wechatName": "依诺",
        "photo": "{\"photo\":\"http://i.s.babyfs.cn/p_1206bea840a94e51acac84c939641ddc.jpeg\",\"wxHeadImg\":\"http://i.s.babyfs.cn/p_31367294eb0e4f43a57a6d18600d5e71.jpeg\"}",
        "hasOrder": 0,
        "isBindAmb": 0,
        "isAttendClass": 1,
        "days": 404
      },
      "parsed": {}
    }, {
      "entity": {
        "bindTime": 1550797565587,
        "userId": 3512903,
        "wechatName": "周隽",
        "photo": "{\"photo\":\"http://i.s.babyfs.cn/p_b146622d3b744d93b2462e9fc6d0e331.jpeg\",\"wxHeadImg\":\"http://i.s.babyfs.cn/p_b3c9c29d06af401d9ddcf9e016694ebb.jpeg\"}",
        "hasOrder": 0,
        "isBindAmb": 0,
        "isAttendClass": 1,
        "days": 404
      },
      "parsed": {}
    }, {
      "entity": {
        "bindTime": 1550797554723,
        "userId": 3512888,
        "wechatName": "张文婷",
        "photo": "{\"photo\":\"http://i.s.babyfs.cn/p_fd0c8a09e4524766b7c4b7ddf3b46523.jpeg\",\"wxHeadImg\":\"http://i.s.babyfs.cn/p_c7569eb6d1bd4e418c035e6fe773121e.jpeg\"}",
        "hasOrder": 0,
        "isBindAmb": 0,
        "isAttendClass": 0,
        "days": 359
      },
      "parsed": {}
    }, {
      "entity": {
        "bindTime": 1550797551128,
        "userId": 3512876,
        "wechatName": "妮妮",
        "photo": "{\"photo\":\"http://i.s.babyfs.cn/p_d59048d35d9641f99e52f895aa9d592b.jpeg\",\"wxHeadImg\":\"http://i.s.babyfs.cn/p_1a7a6a520b6247f9a2e13a002703fab6.jpeg\"}",
        "hasOrder": 0,
        "isBindAmb": 0,
        "isAttendClass": 1,
        "days": 404
      },
      "parsed": {}
    }, {
      "entity": {
        "bindTime": 1550795762400,
        "userId": 1299574,
        "wechatName": "Laura",
        "photo": "{\"photo\":\"http://i.s.babyfs.cn/p_8de0a45e1585401b83ec7e988bb15987.jpeg\",\"wxHeadImg\":\"http://i.s.babyfs.cn/p_7ec0ad9dbbed4b5bae51a0120d1c796e.jpeg\"}",
        "hasOrder": 0,
        "isBindAmb": 0,
        "isAttendClass": 0,
        "days": 359
      },
      "parsed": {}
    }, {
      "entity": {
        "bindTime": 1550758513592,
        "userId": 978055,
        "wechatName": "小毛驴",
        "photo": "{\"photo\":\"http://i.s.babyfs.cn/p_5df2d50efe8740f8aac43c816622da41.jpeg\",\"wxHeadImg\":\"http://i.s.babyfs.cn/p_836039a8beae405d8a3b72e9272ac464.jpeg\"}",
        "hasOrder": 0,
        "isBindAmb": 0,
        "isAttendClass": 1,
        "days": 404
      },
      "parsed": {}
    }, {
      "entity": {
        "bindTime": 1550744371910,
        "userId": 1065540,
        "wechatName": "想你一辈子",
        "photo": "{\"photo\":\"http://i.s.babyfs.cn/p_24026547116b4bf9bb6ae63ac684202b.jpeg\"}",
        "hasOrder": 0,
        "isBindAmb": 0,
        "isAttendClass": 1,
        "days": 403
      },
      "parsed": {}
    }, {
      "entity": {
        "bindTime": 1550740393133,
        "userId": 1043709,
        "wechatName": "时光无声@",
        "photo": "{\"photo\":\"http://i.s.babyfs.cn/p_6f077541a04943928619ff228caae2eb.jpeg\",\"wxHeadImg\":\"http://i.s.babyfs.cn/p_4453274f18eb453ba1fed2fcb5b41034.jpeg\"}",
        "hasOrder": 0,
        "isBindAmb": 0,
        "isAttendClass": 1,
        "days": 403
      },
      "parsed": {}
    }, {
      "entity": {
        "bindTime": 1550739431831,
        "userId": 3499683,
        "wechatName": "中年少女杨小杨",
        "photo": "{\"photo\":\"http://i.s.babyfs.cn/p_ed78118147464e9289df1d029331adfd.jpeg\",\"wxHeadImg\":\"http://i.s.babyfs.cn/p_db28873e7a5242b2856872939f613fe7.jpeg\"}",
        "hasOrder": 0,
        "isBindAmb": 0,
        "isAttendClass": 0,
        "days": 358
      },
      "parsed": {}
    }, {
      "entity": {
        "bindTime": 1550737624446,
        "userId": 3499734,
        "wechatName": "静",
        "photo": "{\"photo\":\"http://i.s.babyfs.cn/p_8dd66dcf393744fa83b9f83b93da99ad.jpeg\",\"wxHeadImg\":\"http://i.s.babyfs.cn/p_cb6ae2e387b848b685778df4fee9a80c.jpeg\"}",
        "hasOrder": 0,
        "isBindAmb": 0,
        "isAttendClass": 1,
        "days": 403
      },
      "parsed": {}
    }],
    "limit": 20,
    "page": 6,
    "totalCount": 194,
    "totalPage": 10
  }
}