{
  "success": true,
  "code": 0,
  "data": {
    "items": [{
      "entity": {
        "bindTime": 1550736809618,
        "userId": 3499718,
        "wechatName": "濑濑",
        "photo": "{\"photo\":\"http://i.s.babyfs.cn/p_339d1f85af214d9486b20388b058a5cf.jpeg\",\"wxHeadImg\":\"http://i.s.babyfs.cn/p_5dd8c735144b4bde968d831cb920ada8.jpeg\"}",
        "hasOrder": 0,
        "isBindAmb": 0,
        "isAttendClass": 1,
        "days": 403
      },
      "parsed": {}
    }, {
      "entity": {
        "bindTime": 1550736598815,
        "userId": 3499711,
        "wechatName": "以七为书",
        "photo": "{\"photo\":\"http://i.s.babyfs.cn/p_e770fa9c87c44ab2b165dac5a2213c57.jpeg\",\"wxHeadImg\":\"http://i.s.babyfs.cn/p_dea8cf6bc7324779afaf212dfefce122.jpeg\"}",
        "hasOrder": 0,
        "isBindAmb": 0,
        "isAttendClass": 0,
        "days": 358
      },
      "parsed": {}
    }, {
      "entity": {
        "bindTime": 1550736312160,
        "userId": 3499731,
        "wechatName": "蒯蒯",
        "photo": "{\"photo\":\"http://i.s.babyfs.cn/p_adaed7a1abb44881bf34b5542f6c585e.jpeg\",\"wxHeadImg\":\"http://i.s.babyfs.cn/p_b79a1c13110c4ed4aaaca8b1397b1b03.jpeg\"}",
        "hasOrder": 0,
        "isBindAmb": 0,
        "isAttendClass": 1,
        "days": 403
      },
      "parsed": {}
    }, {
      "entity": {
        "bindTime": 1550736292721,
        "userId": 3499705,
        "wechatName": "敏敏兔儿爷",
        "photo": "{\"photo\":\"http://i.s.babyfs.cn/p_408cb30e0e7d455795eb3d237828b2bb.jpeg\",\"wxHeadImg\":\"http://i.s.babyfs.cn/p_7b019df6abce4b4a82c71953f6a10980.jpeg\"}",
        "hasOrder": 0,
        "isBindAmb": 0,
        "isAttendClass": 1,
        "days": 403
      },
      "parsed": {}
    }, {
      "entity": {
        "bindTime": 1550736269284,
        "userId": 3499729,
        "wechatName": "周姑娘",
        "photo": "{\"photo\":\"http://i.s.babyfs.cn/p_aae71102651843ea81da6ba30b092007.jpeg\",\"wxHeadImg\":\"http://i.s.babyfs.cn/p_e647dbda45234cbc9af203d81cf960f7.jpeg\"}",
        "hasOrder": 0,
        "isBindAmb": 0,
        "isAttendClass": 1,
        "days": 403
      },
      "parsed": {}
    }, {
      "entity": {
        "bindTime": 1550736267971,
        "userId": 3180649,
        "wechatName": "Hty",
        "photo": "{\"photo\":\"http://i.s.babyfs.cn/p_ce2f6604140f4079bf9e3300f5294a16.jpeg\",\"wxHeadImg\":\"http://i.s.babyfs.cn/p_6aadad4231314f39aea19927ffdb971f.jpeg\"}",
        "hasOrder": 0,
        "isBindAmb": 0,
        "isAttendClass": 1,
        "days": 403
      },
      "parsed": {}
    }, {
      "entity": {
        "bindTime": 1550736267912,
        "userId": 3499696,
        "wechatName": "小包子",
        "photo": "{\"photo\":\"http://i.s.babyfs.cn/p_a2a5be6331fb4fe9a00b64af1d46e09e.jpeg\",\"wxHeadImg\":\"http://i.s.babyfs.cn/p_8ef27f1d77984c3ba5422eb2ebddfe8a.jpeg\"}",
        "hasOrder": 0,
        "isBindAmb": 0,
        "isAttendClass": 1,
        "days": 403
      },
      "parsed": {}
    }, {
      "entity": {
        "bindTime": 1550736259212,
        "userId": 3499720,
        "wechatName": "^_^宁宁",
        "photo": "{\"photo\":\"http://i.s.babyfs.cn/p_92f53d115a344c8698d4e8ec517448bd.jpeg\",\"wxHeadImg\":\"http://i.s.babyfs.cn/p_ddfafe8d514b4dcba182cec59ac51c45.jpeg\"}",
        "hasOrder": 0,
        "isBindAmb": 0,
        "isAttendClass": 1,
        "days": 403
      },
      "parsed": {}
    }, {
      "entity": {
        "bindTime": 1550677954794,
        "userId": 220149,
        "wechatName": "Anna",
        "photo": "{\"photo\":\"http://i.s.babyfs.cn/p_213b6963d91042b7b4ebd427dc53e42b.jpeg\",\"wxHeadImg\":\"http://i.s.babyfs.cn/p_c65b9be872b04b6991d9dca760976530.jpeg\"}",
        "hasOrder": 0,
        "isBindAmb": 0,
        "isAttendClass": 1,
        "days": 403
      },
      "parsed": {}
    }, {
      "entity": {
        "bindTime": 1550677828976,
        "userId": 3493240,
        "wechatName": "天真无鞋",
        "photo": "{\"photo\":\"http://i.s.babyfs.cn/p_f29be16bbe42466caa4251a4b3445e84.jpeg\"}",
        "hasOrder": 0,
        "isBindAmb": 0,
        "isAttendClass": 0,
        "days": 358
      },
      "parsed": {}
    }, {
      "entity": {
        "bindTime": 1550668236931,
        "userId": 173358,
        "wechatName": "黎若绢",
        "photo": "{\"photo\":\"http://i.s.babyfs.cn/p_45dd1e9908a54b69bef39c1bb0d93699.jpeg\",\"wxHeadImg\":\"http://i.s.babyfs.cn/p_601f24f968404a48bfe8954722dfef3c.jpeg\"}",
        "hasOrder": 0,
        "isBindAmb": 0,
        "isAttendClass": 1,
        "days": 402
      },
      "parsed": {}
    }, {
      "entity": {
        "bindTime": 1550666580665,
        "userId": 3490770,
        "wechatName": "美漂",
        "photo": "{\"photo\":\"http://i.s.babyfs.cn/p_eb75e8ea935c4c67b7bd017c1fbb8574.png\"}",
        "hasOrder": 0,
        "isBindAmb": 0,
        "isAttendClass": 1,
        "days": 402
      },
      "parsed": {}
    }, {
      "entity": {
        "bindTime": 1550664899427,
        "userId": 1337306,
        "wechatName": "____噓丶低調",
        "photo": "{\"photo\":\"http://i.s.babyfs.cn/p_6f60e19837e74974a0887e167d3d543a.jpeg\",\"wxHeadImg\":\"http://i.s.babyfs.cn/p_26aae7141f4e4a1ba9e9d71c46186b02.jpeg\"}",
        "hasOrder": 0,
        "isBindAmb": 0,
        "isAttendClass": 0,
        "days": 357
      },
      "parsed": {}
    }, {
      "entity": {
        "bindTime": 1550664193589,
        "userId": 3489961,
        "wechatName": "xx",
        "photo": "{\"photo\":\"http://i.s.babyfs.cn/p_ab5bccec201a41428bdd89705920553c.jpeg\"}",
        "hasOrder": 0,
        "isBindAmb": 0,
        "isAttendClass": 0,
        "days": 357
      },
      "parsed": {}
    }, {
      "entity": {
        "bindTime": 1550660429817,
        "userId": 3489106,
        "wechatName": "王艳杰",
        "photo": "{\"photo\":\"http://i.s.babyfs.cn/p_ca717aec85544a89affcd225cdad9126.jpeg\"}",
        "hasOrder": 0,
        "isBindAmb": 0,
        "isAttendClass": 0,
        "days": 357
      },
      "parsed": {}
    }, {
      "entity": {
        "bindTime": 1550655079236,
        "userId": 3487928,
        "wechatName": "eiyi",
        "photo": "{\"photo\":\"http://i.s.babyfs.cn/p_48f40b720e44411fa877080eb876a3e6.jpeg\",\"wxHeadImg\":\"http://i.s.babyfs.cn/p_ccfdccd2362040fead9001e3b42f0421.jpeg\"}",
        "hasOrder": 0,
        "isBindAmb": 0,
        "isAttendClass": 1,
        "days": 402
      },
      "parsed": {}
    }, {
      "entity": {
        "bindTime": 1550654034640,
        "userId": 3487672,
        "wechatName": "婷婷",
        "photo": "{\"photo\":\"http://i.s.babyfs.cn/p_7b8c40426d2b4136b8108321e476ddf2.jpeg\"}",
        "hasOrder": 0,
        "isBindAmb": 0,
        "isAttendClass": 1,
        "days": 402
      },
      "parsed": {}
    }, {
      "entity": {
        "bindTime": 1550653966033,
        "userId": 1069345,
        "wechatName": "张迷糊",
        "photo": "{\"photo\":\"http://i.s.babyfs.cn/p_f1990caeb1a04dd18b97cba8adade1b7.jpeg\",\"wxHeadImg\":\"http://i.s.babyfs.cn/p_3df2ccaa61a54c02b32d4b7d3a9cc654.jpeg\"}",
        "hasOrder": 0,
        "isBindAmb": 0,
        "isAttendClass": 1,
        "days": 402
      },
      "parsed": {}
    }, {
      "entity": {
        "bindTime": 1550651099528,
        "userId": 3486943,
        "wechatName": "罗亚",
        "photo": "{\"photo\":\"http://i.s.babyfs.cn/p_6a5b87e76b234e738bc155fa991ca571.jpeg\",\"wxHeadImg\":\"http://i.s.babyfs.cn/p_99af1ff1b44d45058d217d29657b5eaf.jpeg\"}",
        "hasOrder": 0,
        "isBindAmb": 0,
        "isAttendClass": 0,
        "days": 357
      },
      "parsed": {}
    }, {
      "entity": {
        "bindTime": 1550648320906,
        "userId": 961171,
        "wechatName": "£簡憚¢¿泡沫€",
        "photo": "{\"photo\":\"http://i.s.babyfs.cn/p_bcd6b230a5324ed49106f6b3bcf8f11f.jpeg\",\"wxHeadImg\":\"http://i.s.babyfs.cn/p_bcd6b230a5324ed49106f6b3bcf8f11f.jpeg\"}",
        "hasOrder": 0,
        "isBindAmb": 0,
        "isAttendClass": 0,
        "days": 357
      },
      "parsed": {}
    }],
    "limit": 20,
    "page": 7,
    "totalCount": 194,
    "totalPage": 10
  }
}