{
  "success": true,
  "code": 0,
  "data": {
    "items": [{
      "entity": {
        "bindTime": 1550642972535,
        "userId": 921694,
        "wechatName": "潘振华",
        "photo": "{\"photo\":\"http://i.s.babyfs.cn/p_8e7182d6749740eda841bdc0a635a3d5.jpeg\",\"wxHeadImg\":\"http://i.s.babyfs.cn/p_c3c23be21d0446e4b8589f953e42852e.jpeg\"}",
        "hasOrder": 1,
        "isBindAmb": 0,
        "isAttendClass": 0,
        "days": 357
      },
      "parsed": {}
    }, {
      "entity": {
        "bindTime": 1550632631104,
        "userId": 3483523,
        "wechatName": ": Hedy桃子",
        "photo": "{\"photo\":\"http://i.s.babyfs.cn/p_75989f7d231e47c4ab1e3c5ee0d55d64.jpeg\"}",
        "hasOrder": 0,
        "isBindAmb": 0,
        "isAttendClass": 0,
        "days": 357
      },
      "parsed": {}
    }, {
      "entity": {
        "bindTime": 1550500781703,
        "userId": 1739261,
        "wechatName": "太平洋 菅早侠 13703103871",
        "photo": "{\"photo\":\"http://i.s.babyfs.cn/p_275789381f8247f182cc5e1bae99515e.jpeg\",\"wxHeadImg\":\"http://i.s.babyfs.cn/p_36bd0e176c564d17a4f58526bd0dea64.jpeg\"}",
        "hasOrder": 0,
        "isBindAmb": 0,
        "isAttendClass": 0,
        "days": 356
      },
      "parsed": {}
    }, {
      "entity": {
        "bindTime": 1550468677494,
        "userId": 3465108,
        "wechatName": "Andy",
        "photo": "{\"photo\":\"http://i.s.babyfs.cn/p_ff79c7cfa4dd4aca846498994fa73f30.jpeg\"}",
        "hasOrder": 0,
        "isBindAmb": 0,
        "isAttendClass": 0,
        "days": 355
      },
      "parsed": {}
    }, {
      "entity": {
        "bindTime": 1550465916451,
        "userId": 1292515,
        "wechatName": "朱朱",
        "photo": "{\"photo\":\"http://i.s.babyfs.cn/p_a98b8cec565e4f4b9e61b58e287f022e.jpeg\",\"wxHeadImg\":\"http://i.s.babyfs.cn/p_06a57ccb43b24858b3cade01691940d8.jpeg\"}",
        "hasOrder": 0,
        "isBindAmb": 0,
        "isAttendClass": 0,
        "days": 355
      },
      "parsed": {}
    }, {
      "entity": {
        "bindTime": 1550461106588,
        "userId": 3463643,
        "wechatName": "庞旭静",
        "photo": "{\"photo\":\"http://i.s.babyfs.cn/p_749e70dc27ce47068bc8225ac1d4b557.jpeg\",\"wxHeadImg\":\"http://i.s.babyfs.cn/p_9fd33d03d894475785c8d0e5546936a4.jpeg\"}",
        "hasOrder": 0,
        "isBindAmb": 0,
        "isAttendClass": 0,
        "days": 355
      },
      "parsed": {}
    }, {
      "entity": {
        "bindTime": 1550456918393,
        "userId": 2685791,
        "wechatName": "DanaeZD💓喵喵",
        "photo": "{\"photo\":\"http://i.s.babyfs.cn/p_0a8a69a385434edc984fedf4c155cff7.jpeg\",\"wxHeadImg\":\"http://i.s.babyfs.cn/p_5e09ee2d7de54663a4423d33c8f0cf8f.jpeg\"}",
        "hasOrder": 0,
        "isBindAmb": 0,
        "isAttendClass": 1,
        "days": 400
      },
      "parsed": {}
    }, {
      "entity": {
        "bindTime": 1550404078807,
        "userId": 956861,
        "wechatName": "secretwish",
        "photo": "{\"photo\":\"http://i.s.babyfs.cn/p_d9b4711887ad4e3e8df88d3d09ec9edf.jpeg\",\"wxHeadImg\":\"http://i.s.babyfs.cn/p_0d48eae5982e4e6d9f4a5ad4a85ac2e9.jpeg\"}",
        "hasOrder": 0,
        "isBindAmb": 0,
        "isAttendClass": 0,
        "days": 354
      },
      "parsed": {}
    }, {
      "entity": {
        "bindTime": 1550370864749,
        "userId": 385801,
        "wechatName": "py",
        "photo": "{\"photo\":\"http://i.s.babyfs.cn/p_53fe4d0ec0f34c3a8ff577d9f52289f6.jpeg\",\"wxHeadImg\":\"http://i.s.babyfs.cn/p_32738ba092aa421fb14749082f962446.jpeg\"}",
        "hasOrder": 0,
        "isBindAmb": 0,
        "isAttendClass": 0,
        "days": 354
      },
      "parsed": {}
    }, {
      "entity": {
        "bindTime": 1550369007673,
        "userId": 2839420,
        "wechatName": "一抹、红茶",
        "photo": "{\"photo\":\"http://i.s.babyfs.cn/p_3f264c81d36e4bfca6e58bd34f501686.jpeg\",\"wxHeadImg\":\"http://i.s.babyfs.cn/p_9d6d7f300ebd410fb4fd073a274f564a.jpeg\"}",
        "hasOrder": 0,
        "isBindAmb": 0,
        "isAttendClass": 1,
        "days": 399
      },
      "parsed": {}
    }, {
      "entity": {
        "bindTime": 1550368161252,
        "userId": 3457631,
        "wechatName": "利利",
        "photo": "{\"photo\":\"http://i.s.babyfs.cn/p_415d618c644e46e4b8fbdaf3e0889b1c.jpeg\"}",
        "hasOrder": 0,
        "isBindAmb": 0,
        "isAttendClass": 0,
        "days": 354
      },
      "parsed": {}
    }, {
      "entity": {
        "bindTime": 1550367337495,
        "userId": 3425717,
        "wechatName": "海波.张",
        "photo": "{\"photo\":\"http://i.s.babyfs.cn/p_673fb0d7ef794aa5aa9b95df3b4217e8.jpeg\",\"wxHeadImg\":\"http://i.s.babyfs.cn/p_55cdb3cdc2ea4d59a95128c976173bba.jpeg\"}",
        "hasOrder": 0,
        "isBindAmb": 0,
        "isAttendClass": 0,
        "days": 354
      },
      "parsed": {}
    }, {
      "entity": {
        "bindTime": 1550366301306,
        "userId": 3457488,
        "wechatName": "~恒小恒~㊙",
        "photo": "{\"photo\":\"http://i.s.babyfs.cn/p_f65c724ce0a6429a80c9cdd88dec47a3.jpeg\"}",
        "hasOrder": 0,
        "isBindAmb": 0,
        "isAttendClass": 0,
        "days": 354
      },
      "parsed": {}
    }, {
      "entity": {
        "bindTime": 1550362364804,
        "userId": 1067005,
        "wechatName": "、",
        "photo": "{\"photo\":\"http://i.s.babyfs.cn/p_19c420c495ae4a83accea72ceb2bd726.jpeg\",\"wxHeadImg\":\"http://i.s.babyfs.cn/p_0cf4391307994738ac4534a3d501f6ff.jpeg\"}",
        "hasOrder": 0,
        "isBindAmb": 0,
        "isAttendClass": 0,
        "days": 354
      },
      "parsed": {}
    }, {
      "entity": {
        "bindTime": 1550128287816,
        "userId": 3433263,
        "wechatName": "某某红",
        "photo": "{\"photo\":\"http://i.s.babyfs.cn/p_c9b988afed774d9898cc5e664349dd27.jpeg\",\"wxHeadImg\":\"http://i.s.babyfs.cn/p_0fae06ed57534800803de0b6039938c1.jpeg\"}",
        "hasOrder": 0,
        "isBindAmb": 0,
        "isAttendClass": 1,
        "days": 396
      },
      "parsed": {}
    }, {
      "entity": {
        "bindTime": 1550044351560,
        "userId": 1504842,
        "wechatName": "素心",
        "photo": "{\"photo\":\"http://i.s.babyfs.cn/p_a1c9584946a043ba8498ce6a6176aa9b.jpeg\",\"wxHeadImg\":\"http://i.s.babyfs.cn/p_54fa8a56b19c4570820e9c27cb99ae95.jpeg\"}",
        "hasOrder": 1,
        "isBindAmb": 0,
        "isAttendClass": 1,
        "days": 395
      },
      "parsed": {}
    }, {
      "entity": {
        "bindTime": 1548865333472,
        "userId": 868062,
        "wechatName": "小v",
        "photo": "{\"photo\":\"http://i.s.babyfs.cn/p_28038523a153490da89cd4c520c0533b.jpeg\",\"wxHeadImg\":\"http://i.s.babyfs.cn/p_ee6912071fc14b77badceac87b7e7000.jpeg\"}",
        "hasOrder": 0,
        "isBindAmb": 0,
        "isAttendClass": 1,
        "days": 382
      },
      "parsed": {}
    }, {
      "entity": {
        "bindTime": 1548832075970,
        "userId": 2001534,
        "wechatName": "糖果",
        "photo": "{\"photo\":\"http://i.s.babyfs.cn/p_35f80faf4c3a41c49b9f870c0d13c1ac.jpeg\",\"wxHeadImg\":\"http://i.s.babyfs.cn/p_b260538d10494d3eb09cce98941fd6bf.jpeg\"}",
        "hasOrder": 0,
        "isBindAmb": 0,
        "isAttendClass": 1,
        "days": 381
      },
      "parsed": {}
    }, {
      "entity": {
        "bindTime": 1548824233368,
        "userId": 3377113,
        "wechatName": "[福]天津增产道【侠侠】推广专家",
        "photo": "{\"photo\":\"http://i.s.babyfs.cn/p_b9069fdc1b1c49b9bce092fbc39c174b.jpeg\",\"wxHeadImg\":\"http://i.s.babyfs.cn/p_83003c7042954015befca8d81924bf8a.jpeg\"}",
        "hasOrder": 0,
        "isBindAmb": 0,
        "isAttendClass": 1,
        "days": 381
      },
      "parsed": {}
    }, {
      "entity": {
        "bindTime": 1548819647425,
        "userId": 1407070,
        "wechatName": "小小文",
        "photo": "{\"photo\":\"http://i.s.babyfs.cn/p_da5f54b9f5ad4940a388c8397e3bdf83.jpeg\",\"wxHeadImg\":\"http://i.s.babyfs.cn/p_397c7ccd25dd4c918a5b012ba979b962.jpeg\"}",
        "hasOrder": 0,
        "isBindAmb": 0,
        "isAttendClass": 1,
        "days": 381
      },
      "parsed": {}
    }],
    "limit": 20,
    "page": 8,
    "totalCount": 194,
    "totalPage": 10
  }
}