{
  "success": true,
  "code": 0,
  "data": {
    "items": [{
      "entity": {
        "bindTime": 1548819191227,
        "userId": 3376522,
        "wechatName": "养柯基的喵",
        "photo": "{\"photo\":\"http://i.s.babyfs.cn/p_bce259c0b7ea4f1497fa2a913b407780.jpeg\"}",
        "hasOrder": 0,
        "isBindAmb": 0,
        "isAttendClass": 0,
        "days": 336
      },
      "parsed": {}
    }, {
      "entity": {
        "bindTime": 1548811099251,
        "userId": 386912,
        "wechatName": "吴呆呆",
        "photo": "{\"photo\":\"http://i.s.babyfs.cn/p_dd70f1e45b6f4dd5a99761904bde3770.jpeg\",\"wxHeadImg\":\"http://i.s.babyfs.cn/p_43941d084417412286adcddf8433859e.jpeg\"}",
        "hasOrder": 0,
        "isBindAmb": 0,
        "isAttendClass": 0,
        "days": 336
      },
      "parsed": {}
    }, {
      "entity": {
        "bindTime": 1548773278136,
        "userId": 858459,
        "wechatName": "请叫我雪狍子君",
        "photo": "{\"photo\":\"http://i.s.babyfs.cn/p_ebaef094b2b54d77bbdafc3db4bd4e39.jpeg\",\"wxHeadImg\":\"http://i.s.babyfs.cn/p_c9ea4a1f946c48409be59a7c734cd441.jpeg\"}",
        "hasOrder": 0,
        "isBindAmb": 0,
        "isAttendClass": 1,
        "days": 381
      },
      "parsed": {}
    }, {
      "entity": {
        "bindTime": 1548763925496,
        "userId": 245014,
        "wechatName": "燕子",
        "photo": "{\"photo\":\"http://i.s.babyfs.cn/p_cbf1f1c23fc24b1482de8a813054db0e.jpeg\",\"wxHeadImg\":\"http://i.s.babyfs.cn/p_7a2c6101374f4a81b862ed4ef056c3cb.jpeg\"}",
        "hasOrder": 0,
        "isBindAmb": 0,
        "isAttendClass": 0,
        "days": 335
      },
      "parsed": {}
    }, {
      "entity": {
        "bindTime": 1548758988755,
        "userId": 3370665,
        "wechatName": "吉吉",
        "hasOrder": 0,
        "isBindAmb": 0,
        "isAttendClass": 1,
        "days": 380
      },
      "parsed": {}
    }, {
      "entity": {
        "bindTime": 1548753054757,
        "userId": 101004,
        "wechatName": "赵瑞杰",
        "photo": "{\"photo\":\"http://i.s.babyfs.cn/p_dc9aab837d4f4df99e111a1e14843124.jpeg\",\"wxHeadImg\":\"http://i.s.babyfs.cn/p_cb7ed94c037b4bd4b2eacdf692a7bc18.jpeg\"}",
        "hasOrder": 0,
        "isBindAmb": 0,
        "isAttendClass": 1,
        "days": 380
      },
      "parsed": {}
    }, {
      "entity": {
        "bindTime": 1548749494137,
        "userId": 1178581,
        "wechatName": "🌹凌希🌹JESS玫瑰精油护肤",
        "photo": "{\"photo\":\"http://i.s.babyfs.cn/p_9f49337f9a65413f970c66eb1aaba24a.jpeg\",\"wxHeadImg\":\"http://i.s.babyfs.cn/p_4678574cf3094ae1b8204ccf0b8c4841.jpeg\"}",
        "hasOrder": 0,
        "isBindAmb": 0,
        "isAttendClass": 0,
        "days": 335
      },
      "parsed": {}
    }, {
      "entity": {
        "bindTime": 1548742638613,
        "userId": 135905,
        "wechatName": "婷",
        "photo": "{\"photo\":\"http://i.s.babyfs.cn/p_c63d070bb4f740799ddb89363d8ce8a0.jpeg\",\"wxHeadImg\":\"http://i.s.babyfs.cn/p_c504b8e6cb064426b2d2aaa7a58d18c6.jpeg\"}",
        "hasOrder": 0,
        "isBindAmb": 0,
        "isAttendClass": 0,
        "days": 335
      },
      "parsed": {}
    }, {
      "entity": {
        "bindTime": 1548742128210,
        "userId": 57659,
        "wechatName": "№五月",
        "photo": "{\"photo\":\"http://i.s.babyfs.cn/p_cd8c31e0b1904d078c7ef0855befc873.jpeg\",\"wxHeadImg\":\"http://i.s.babyfs.cn/p_c2f7706c6f0449428d10ca0d76602397.jpeg\"}",
        "hasOrder": 0,
        "isBindAmb": 0,
        "isAttendClass": 1,
        "days": 380
      },
      "parsed": {}
    }, {
      "entity": {
        "bindTime": 1548742093918,
        "userId": 962611,
        "wechatName": "英子",
        "photo": "{\"photo\":\"http://i.s.babyfs.cn/p_74734d3554454e359cc89ab38dc5de89.jpeg\",\"wxHeadImg\":\"http://i.s.babyfs.cn/p_3db26e6e116048ff9167e5704147e184.jpeg\"}",
        "hasOrder": 0,
        "isBindAmb": 0,
        "isAttendClass": 0,
        "days": 335
      },
      "parsed": {}
    }, {
      "entity": {
        "bindTime": 1548742001578,
        "userId": 2093708,
        "wechatName": "Derrick",
        "photo": "{\"photo\":\"http://i.s.babyfs.cn/p_b57b4d0731c64e15ae66bed075136ae1.jpeg\",\"wxHeadImg\":\"http://i.s.babyfs.cn/p_b46f417dc9a44211b28bf7ccd28b7239.jpeg\"}",
        "hasOrder": 0,
        "isBindAmb": 0,
        "isAttendClass": 0,
        "days": 335
      },
      "parsed": {}
    }, {
      "entity": {
        "bindTime": 1548741836873,
        "userId": 1385123,
        "wechatName": "顺义-freda",
        "photo": "{\"photo\":\"http://i.s.babyfs.cn/p_c3d7897d444749cfadfe2f976d2edca2.jpeg\",\"wxHeadImg\":\"http://i.s.babyfs.cn/p_5c4ee7c5ceab42d0a001049b119aa625.jpeg\"}",
        "hasOrder": 0,
        "isBindAmb": 0,
        "isAttendClass": 0,
        "days": 335
      },
      "parsed": {}
    }, {
      "entity": {
        "bindTime": 1548741633025,
        "userId": 855621,
        "wechatName": "roro",
        "photo": "{\"photo\":\"http://i.s.babyfs.cn/p_36b064ef022246899932b10a32dabc5e.jpeg\",\"wxHeadImg\":\"http://i.s.babyfs.cn/p_a5f52f221f17492393db20c4a00e17bd.jpeg\"}",
        "hasOrder": 0,
        "isBindAmb": 0,
        "isAttendClass": 0,
        "days": 335
      },
      "parsed": {}
    }, {
      "entity": {
        "bindTime": 1548741552343,
        "userId": 946092,
        "wechatName": "张颖",
        "photo": "{\"photo\":\"http://i.s.babyfs.cn/p_d260a72948654938861dc2979d744d88.jpeg\",\"wxHeadImg\":\"http://i.s.babyfs.cn/p_7f67bf0233834e38b5f4d3615baaf8d4.jpeg\"}",
        "hasOrder": 0,
        "isBindAmb": 0,
        "isAttendClass": 0,
        "days": 335
      },
      "parsed": {}
    }, {
      "entity": {
        "bindTime": 1548741530323,
        "userId": 1277190,
        "wechatName": "夏晴",
        "photo": "{\"photo\":\"http://i.s.babyfs.cn/p_c20d020058214e13957328a0070df2fa.jpeg\",\"wxHeadImg\":\"http://i.s.babyfs.cn/p_d4b1c5c8a6fe447ea71c6735abf85de6.jpeg\"}",
        "hasOrder": 0,
        "isBindAmb": 1,
        "isAttendClass": 0,
        "days": 335
      },
      "parsed": {}
    }, {
      "entity": {
        "bindTime": 1548687171472,
        "userId": 1043615,
        "wechatName": "高顿财务～珍",
        "photo": "{\"photo\":\"http://i.s.babyfs.cn/p_c06128e71bf44d1c96ef07497d34cfd5.jpeg\",\"wxHeadImg\":\"http://i.s.babyfs.cn/p_6a552ee9a6054d14b7781d983f2aebb3.jpeg\"}",
        "hasOrder": 0,
        "isBindAmb": 0,
        "isAttendClass": 0,
        "days": 335
      },
      "parsed": {}
    }, {
      "entity": {
        "bindTime": 1547814205191,
        "userId": 3017962,
        "wechatName": "奇幻科学城小科",
        "photo": "{\"photo\":\"http://i.s.babyfs.cn/p_269c3a27b7dd4d9086f30c0f9f1cb192.jpeg\",\"wxHeadImg\":\"http://i.s.babyfs.cn/p_1bbe09daff7c4c0e8a85b46ca5fb1f18.jpeg\"}",
        "hasOrder": 0,
        "isBindAmb": 0,
        "isAttendClass": 1,
        "days": 369
      },
      "parsed": {}
    }, {
      "entity": {
        "bindTime": 1547543152954,
        "userId": 1270766,
        "wechatName": "木子一",
        "photo": "{\"photo\":\"http://i.s.babyfs.cn/p_9a2126f74a4542209f2036168eafe39f.jpeg\",\"wxHeadImg\":\"http://i.s.babyfs.cn/p_d183eff838df4ff5b7b4ecd5d636b825.jpeg\"}",
        "hasOrder": 0,
        "isBindAmb": 1,
        "isAttendClass": 1,
        "days": 366
      },
      "parsed": {}
    }, {
      "entity": {
        "bindTime": 1547530189679,
        "userId": 2964598,
        "wechatName": "Kinki",
        "photo": "{\"photo\":\"http://i.s.babyfs.cn/p_3eb1c3ee85ea4201abe2d5e5575ddd80.jpeg\",\"wxHeadImg\":\"http://i.s.babyfs.cn/p_3c19a89b890745a383f5ff5d430d23ca.jpeg\"}",
        "hasOrder": 0,
        "isBindAmb": 0,
        "isAttendClass": 0,
        "days": 321
      },
      "parsed": {}
    }, {
      "entity": {
        "bindTime": 1547519317261,
        "userId": 801587,
        "wechatName": "宝玩舟舟老师C06774",
        "photo": "{\"photo\":\"http://i.s.babyfs.cn/p_ebe993c9012e4b80bcaf3eb80f0dfed4.jpeg\",\"wxHeadImg\":\"http://i.s.babyfs.cn/p_20f12159dc034d818fce47c8f5ce7586.jpeg\"}",
        "hasOrder": 0,
        "isBindAmb": 1,
        "isAttendClass": 1,
        "days": 366
      },
      "parsed": {}
    }],
    "limit": 20,
    "page": 9,
    "totalCount": 194,
    "totalPage": 10
  }
}